Place,Name,Division,BirthYear,BodyweightKg,Bench1Kg,Bench2Kg,Bench3Kg,Best3BenchKg,Bench4Kg,WeightClassKg,Sex,CyrillicName,Tested,Equipment,Event,TotalKg
1,Anastasiya Vasylchenko,T3,1992,44,-40,40,45,45,-50.5,44,F,Анастасія Васильченко,Yes,Raw,B,45
1,Kseniya Voloshina,O,1985,44,40,42.5,45,45,,44,F,Ксенія Волошина,Yes,Raw,B,45
1,Albina Chernyak,T3,1994,45.5,-45,45,50,50,,48,F,Альбіна Черняк,Yes,Raw,B,50
1,Milena Rudenko,O,1981,46.9,50,52.5,-55,52.5,,48,F,Мілена Руденко,Yes,Raw,B,52.5
1,Lilia Prots,O,1974,51,57.5,62.5,65,65,,52,F,Лілія Проць,Yes,Raw,B,65
2,Nadiya Savchenko,O,1986,51.2,60,-65,-65,60,,52,F,Надія Савченко,Yes,Raw,B,60
3,Olena Strelkova,O,1987,51.9,-55,55,-60,55,,52,F,Олена Стрелкова,Yes,Raw,B,55
4,Iryna Vovk,O,1986,51,30,35,37.5,37.5,,52,F,Ірина Вовк,Yes,Raw,B,37.5
1,Anastasiya Lavrynovych,T2,1995,53.2,30,37.5,-40,37.5,,56,F,Анастасія Лавринович,Yes,Raw,B,37.5
1,Kateryna Prasol,J,1990,55,40,45,-50,45,,56,F,Катерина Прасол,Yes,Raw,B,45
1,Anna Konoval,O,1984,54,75,-80,-80,75,,56,F,Анна Коновал,Yes,Raw,B,75
2,Diana Savarets,O,1984,55,-72.5,-72.5,72.5,72.5,,56,F,Діана Саварець,Yes,Raw,B,72.5
DQ,Mylana Karpechenko,O,1987,56,-55,,,,,56,F,Милана Карпеченко,Yes,Raw,B,
1,Maryna Soltanova,O,1985,60,57.5,-62.5,62.5,62.5,,60,F,Марина Солтанова,Yes,Raw,B,62.5
2,Maryna Gal'chuk,O,1982,58.7,55,-57.5,57.5,57.5,,60,F,Марина Гальчук,Yes,Raw,B,57.5
1,Yuliya Lyba,M1,1971,60,55,-60,-60,55,,60,F,Юлія Либа,Yes,Raw,B,55
1,Natalya Pen'kova,M2,1965,60,40,-42.5,-42.5,40,,60,F,Наталія Пенькова,Yes,Raw,B,40
1,Maryna Stokozenko,J,1989,64.8,55,-60,-60,55,,67.5,F,Марина Стокозенко,Yes,Raw,B,55
1,Maryna Khristoforova,O,1966,62.4,80,85,87.5,87.5,,67.5,F,Марина Христофорова,Yes,Raw,B,87.5
2,Iryna Zhelyazkova,O,1984,67.5,50,-52.5,52.5,52.5,,67.5,F,Ірина Желязкова,Yes,Raw,B,52.5
1,Olena Timofeyeva,M1,1968,62.5,55,60,-65,60,,67.5,F,Олена Тимофеєва,Yes,Raw,B,60
1,Maryna Khristoforova,M2,1966,62.4,80,85,87.5,87.5,,67.5,F,Марина Христофорова,Yes,Raw,B,87.5
1,Olga Pisareva,M4,1956,63.4,40,-45,-45,40,,67.5,F,Ольга Писарева,Yes,Raw,B,40
1,Vladislav Bondarenko,T1,1999,32.2,35,37.5,-40,37.5,,52,M,Владислав Бондаренко,Yes,Raw,B,37.5
2,Vladyslav Zaporozhets,T1,2001,30.6,20,25,-27.5,25,,52,M,Владислав Запорожець,Yes,Raw,B,25
DQ,Dmytro Usachov,T1,1998,43,-60,-60,-60,,,52,M,Дмитро Усачов,Yes,Raw,B,
1,Dmitro Bugrim,T2,1995,50.3,-60,60,-62.5,60,,52,M,Дмитро Бугрим,Yes,Raw,B,60
1,Anton Gritsun,J,1990,52,90,100,105,105,-107.5,52,M,Антон Грицун,Yes,Raw,B,105
1,Oleksiy Markevych,J,1991,54.7,-110,110,-112.5,110,,56,M,Олексій Маркевич,Yes,Raw,B,110
1,Oleksandr Kotovych,O,1987,56,105,110,112.5,112.5,,56,M,Олександр Котович,Yes,Raw,B,112.5
1,Vyacheslav Korsun,T1,1996,59.3,72.5,75,-80,75,,60,M,В'ячеслав Корсун,Yes,Raw,B,75
2,Illya Shymanaev,T1,1999,59.2,37.5,40,-42.5,40,,60,M,Ілля Шиманаєв,Yes,Raw,B,40
1,Viktor Kalynovskyy,T2,1995,59.8,105,112.5,115,115,,60,M,Віктор Калиновський,Yes,Raw,B,115
2,Vladyslav Zmiyenko,T2,1995,60,105,110,112.5,112.5,,60,M,Владислав Змієнко,Yes,Raw,B,112.5
3,Pavlo Perevozchikov,T2,1994,59.8,-97.5,97.5,-112.5,97.5,,60,M,Павло Перевозчиков,Yes,Raw,B,97.5
DQ,Dmytro Velkhoviy,T2,1995,60,-90,-92.5,-92.5,,,60,M,Дмитро Вельховий,Yes,Raw,B,
1,Vyacheslav Kozis,T3,1993,59.9,110,115,-120,115,,60,M,В'ячеслав Козіс,Yes,Raw,B,115
2,Evgen Avramenko,T3,1993,58,105,110,112.5,112.5,,60,M,Євген Авраменко,Yes,Raw,B,112.5
3,Oleksandr Simonenko,T3,1992,57.7,90,-95,-95,90,,60,M,Олександр Симоненко,Yes,Raw,B,90
1,Viktor Khorunzhyy,J,1990,59.9,100,-110,110,110,,60,M,Віктор Хорунжий,Yes,Raw,B,110
1,Volodymyr Kovalenko,M2,1965,59.5,75,90,-101,90,,60,M,Володимир Коваленко,Yes,Raw,B,90
1,Kyrylo Sharoyko,T1,1998,61,55,-60,-60,55,,67.5,M,Кирило Шаройко,Yes,Raw,B,55
1,Vitaliy Prokha,T2,1994,61.7,90,100,-105,100,,67.5,M,Віталій Проха,Yes,Raw,B,100
2,Vladislav Poplavskiy,T2,1995,66.2,90,95,-100,95,,67.5,M,Владислав Поплавский,Yes,Raw,B,95
3,Igor Vinar,T2,1994,67.5,95,-100,-100,95,,67.5,M,Ігор Вінар,Yes,Raw,B,95
4,Oleg Oliynyk,T2,1995,67.5,85,90,95,95,,67.5,M,Олег Олійник,Yes,Raw,B,95
1,Sergiy Kuzyoma,T3,1993,64.6,115,125,-145,125,,67.5,M,Сергій Кузьома,Yes,Raw,B,125
2,Oleksandr Petrov,T3,1992,64.1,110,115,120,120,,67.5,M,Олександр Петров,Yes,Raw,B,120
3,Yevgen Viznyuk,T3,1993,67.1,100,-105,105,105,,67.5,M,Євген Візнюк,Yes,Raw,B,105
4,Yaroslav Dumanskyy,T3,1993,65,90,100,-110,100,,67.5,M,Ярослав Думанський,Yes,Raw,B,100
1,Oleksandr Sagarovskyy,J,1991,65.4,90,100,-102.5,100,,67.5,M,Олександр Сагаровський,Yes,Raw,B,100
1,Oleg Prikhodko,O,1981,67.5,150,-160,-160,150,,67.5,M,Олег Приходько,Yes,Raw,B,150
1,Denis Nelovkin,T1,1997,70.1,-92.5,-95,95,95,,75,M,Денис Неловкін,Yes,Raw,B,95
2,Vladyslav Polyvko,T1,1998,73.4,60,65,-67.5,65,,75,M,Владислав Поливко,Yes,Raw,B,65
1,Anton Levenets,T2,1995,70.7,115,117.5,120,120,,75,M,Антон Левенець,Yes,Raw,B,120
2,Oleksey Kizyma,T2,1995,74.8,-115,115,120,120,,75,M,Олексій Кізима,Yes,Raw,B,120
3,Oleg Ivanik,T2,1994,73.4,115,-125,-125,115,,75,M,Олег Іваник,Yes,Raw,B,115
4,Oleksiy Sergeev,T2,1995,73.2,110,-115,-115,110,,75,M,Олексій Сергєєв,Yes,Raw,B,110
5,Anatoliy Zhabchenko,T2,1995,74.4,-110,110,-115,110,,75,M,Анатолій Жабченко,Yes,Raw,B,110
DQ,Oleksandr Kyrylenko,T2,1994,75,-137.5,-137.5,-137.5,,,75,M,Олександр Кириленко,Yes,Raw,B,
1,Yevgen Chabala,T3,1992,75,130,137.5,-142.5,137.5,,75,M,Євген Чабала,Yes,Raw,B,137.5
2,Yevgen Lyaskovskyy,T3,1993,73.4,125,132.5,-137.5,132.5,,75,M,Євген Лясковський,Yes,Raw,B,132.5
3,Aleksandr Miroshnichenko,T3,1992,73.2,127.5,-135,-135,127.5,,75,M,Александр Мирошниченко,Yes,Raw,B,127.5
1,Oleksandr Kovalenko,J,1991,73.4,147.5,-157.5,157.5,157.5,,75,M,Олександр Коваленко,Yes,Raw,B,157.5
2,Vasyl' Dovgyy,J,1989,74,140,150,152.5,152.5,,75,M,Василь Довгий,Yes,Raw,B,152.5
3,Andriy Verkhovtsev,J,1991,71.7,135,140,-142.5,140,,75,M,Андрій Верховцев,Yes,Raw,B,140
4,Dmytro Burdenyuk,J,1990,70.6,130,137.5,-142.5,137.5,,75,M,Дмитро Бурденюк,Yes,Raw,B,137.5
5,Kostyantyn Bolotov,J,1994,73.1,90,-92.5,92.5,92.5,,75,M,Костянтин Болотов,Yes,Raw,B,92.5
6,Igor Mandrygolya,J,1991,72.4,90,-100,-100,90,,75,M,Ігор Мандриголя,Yes,Raw,B,90
7,Maksym Bodnya,J,1992,75,70,-82.5,82.5,82.5,,75,M,Максим Бодня,Yes,Raw,B,82.5
1,Dmytro Moroz,O,1976,72.8,155,160,-162.5,160,,75,M,Дмитро Мороз,Yes,Raw,B,160
2,Ruslan Gavrilyuk,O,1976,74,145,152.5,157.5,157.5,,75,M,Руслан Гаврилюк,Yes,Raw,B,157.5
3,Oleksandr Garbuza,O,1982,70.8,-150,150,-155,150,,75,M,Олександр Гарбуза,Yes,Raw,B,150
4,Valeriy Fursa,O,1987,75,150,-160,-160,150,,75,M,Валерій Фурса,Yes,Raw,B,150
5,Dmytro Lysenko,O,1981,71.4,137.5,145,-150,145,,75,M,Дмитро Лисенко,Yes,Raw,B,145
6,Oleksandr Nanovskyy,O,1983,74.1,137.5,-142.5,145,145,,75,M,Олександр Нановський,Yes,Raw,B,145
7,Artem Skalyga,O,1981,75,-130,-130,130,130,,75,M,Артем Скалига,Yes,Raw,B,130
8,Artem Sarzhan,O,1984,75,120,125,127.5,127.5,,75,M,Артем Саржан,Yes,Raw,B,127.5
DQ,Yevgen Bezkrovnyy,O,1988,69.8,-130,-130,-137.5,,,75,M,Євген Безкровний,Yes,Raw,B,
1,Oleksandr Gol'din,M1,1969,70.8,125,132.5,137.5,137.5,,75,M,Олександр Гольдін,Yes,Raw,B,137.5
DQ,Volodymyr Shuba,M1,1971,74.8,-137.5,-137.5,-140,,,75,M,Володимир Шуба,Yes,Raw,B,
1,Arsen Kaseyev,M4,1955,75,127.5,132.5,135,135,,75,M,Арсен Касєєв,Yes,Raw,B,135
1,Vyacheslav Yakubchak,T2,1995,77.3,102.5,107.5,112.5,112.5,,82.5,M,В'ячеслав Якубчак,Yes,Raw,B,112.5
2,Oleksiy Slyusar,T2,1995,82.3,-100,-100,100,100,,82.5,M,Олексій Слюсар,Yes,Raw,B,100
3,Yan Makovetskyy,T2,1995,76.4,90,-95,95,95,,82.5,M,Ян Маковецький,Yes,Raw,B,95
1,Petro Magerovskyy,T3,1992,81.8,155,165,170,170,,82.5,M,Петро Магеровський,Yes,Raw,B,170
2,Ruslan Motuzkin,T3,1993,81.9,150,160,-165,160,,82.5,M,Руслан Мотузкін,Yes,Raw,B,160
3,Oleg Barma,T3,1993,82.2,140,145,150,150,,82.5,M,Олег Барма,Yes,Raw,B,150
4,Vadim Petrov,T3,1993,82.5,140,-145,145,145,,82.5,M,Вадим Петров,Yes,Raw,B,145
1,Oleg Galchenko,J,1992,81.6,-140,145,-150,145,,82.5,M,Олег Гальченко,Yes,Raw,B,145
2,Vladislav Artemenko,J,1990,82.4,135,-140,142.5,142.5,,82.5,M,Владислав Артеменко,Yes,Raw,B,142.5
3,Stanislav Shepil',J,1992,82.5,-140,142.5,-147.5,142.5,,82.5,M,Станіслав Шепіль,Yes,Raw,B,142.5
4,Illya Bukhantsev,J,1989,78.3,135,140,-145,140,,82.5,M,Ілля Буханцев,Yes,Raw,B,140
5,Oleksandr Klymenko,J,1990,75.4,127.5,132.5,-135,132.5,,82.5,M,Олександр Кліменко,Yes,Raw,B,132.5
6,Pavlo Piskunov,J,1989,77.8,125,-130,-130,125,,82.5,M,Павло Піскунов,Yes,Raw,B,125
7,Mykola Kipnyak,J,1991,81.1,115,120,-127.5,120,,82.5,M,Микола Кіпняк,Yes,Raw,B,120
8,Maksim Skiba,J,1990,81.5,115,120,-135,120,,82.5,M,Максим Скиба,Yes,Raw,B,120
DD,Roman Molchanov,J,1991,78,-155,-160,-167.5,,,82.5,M,Роман Молчанов,Yes,Raw,B,
1,Oleg Slyusar,O,1972,82.4,165,172.5,-181,172.5,,82.5,M,Олег Слюсар,Yes,Raw,B,172.5
2,Yevgen Chernenko,O,1974,80,160,165,-167.5,165,,82.5,M,Євген Черненко,Yes,Raw,B,165
3,Andriy Grinishin,O,1981,79.7,150,160,-165,160,,82.5,M,Андрій Гринішин,Yes,Raw,B,160
4,Yevgen Anyschenko,O,1983,80.2,155,157.5,-160,157.5,,82.5,M,Євген Анищенко,Yes,Raw,B,157.5
5,Yaroslav Telker,O,1988,80.9,135,142.5,-145,142.5,,82.5,M,Ярослав Телькер,Yes,Raw,B,142.5
6,Sergiy Chepets,O,1976,81.2,130,-140,140,140,,82.5,M,Сергій Чепець,Yes,Raw,B,140
7,Vlad Kubilyunas,O,1983,82,-140,140,-145,140,,82.5,M,Влад Кубилюнас,Yes,Raw,B,140
8,Oleksiy Selin,O,1983,82.2,-135,-140,140,140,,82.5,M,Олексій Селін,Yes,Raw,B,140
9,Oleksandr Klymenko,O,1990,75.4,127.5,132.5,-135,132.5,,82.5,M,Олександр Кліменко,Yes,Raw,B,132.5
1,Vladyslav Ilmatov,M2,1963,80.2,125,130,132.5,132.5,,82.5,M,Владислав Ільматов,Yes,Raw,B,132.5
1,Yuriy Osadchenko,M3,1961,81.7,-155,160,-165,160,,82.5,M,Юрій Осадченко,Yes,Raw,B,160
2,Dmitro Cherevatenko,M3,1960,77.9,105,110,112.5,112.5,,82.5,M,Дмитро Череватенко,Yes,Raw,B,112.5
1,Volodymyr Shynkarchuk,M4,1956,81.8,105,-110,112.5,112.5,,82.5,M,Володимир Шинкарчук,Yes,Raw,B,112.5
2,Mykola Popov,M4,1954,77.6,90,-97.5,-97.5,90,,82.5,M,Микола Попов,Yes,Raw,B,90
1,Sergiy Golenko,T2,1995,88.9,110,120,125,125,,90,M,Сергій Голенко,Yes,Raw,B,125
2,Vladislav Vovk,T2,1994,82.6,75,80,-90,80,,90,M,Владислав Вовк,Yes,Raw,B,80
1,Oleksandr Dvornichenko,J,1992,88.6,-147.5,-155,155,155,,90,M,Олександр Дворніченко,Yes,Raw,B,155
2,Yevgen Agapov,J,1991,86.3,142.5,-145,-145,142.5,,90,M,Євген Агапов,Yes,Raw,B,142.5
1,Maksim Fokin,O,1983,86.4,180,-185,-185,180,,90,M,Максим Фокін,Yes,Raw,B,180
2,Kostyantyn Grabovskyy,O,1976,88.5,180,-187.5,-187.5,180,,90,M,Костянтин Грабовський,Yes,Raw,B,180
3,Oleksiy Slyusar,O,1976,89.9,170,175,-182.5,175,,90,M,Олексій Слюсар,Yes,Raw,B,175
4,Vadim Penkov,O,1973,88.9,160,170,172.5,172.5,,90,M,Вадим Пеньков,Yes,Raw,B,172.5
5,Denys Ovchynnikov,O,1982,90,150,160,167.5,167.5,,90,M,Денис Овчинніков,Yes,Raw,B,167.5
6,Vitaliy Pan,O,1987,88.9,160,165,-170,165,,90,M,Віталій Пан,Yes,Raw,B,165
7,Andriy Mazur,O,1985,85.9,-160,160,-165,160,,90,M,Андрій Мазур,Yes,Raw,B,160
8,Vasiliy Bisyuk,O,1984,88.5,-160,160,-170,160,,90,M,Василь Бисюк,Yes,Raw,B,160
9,Denis Pogorelov,O,1981,89.3,160,-170,-170,160,,90,M,Денис Погорелов,Yes,Raw,B,160
10,Dmytro Gak,O,1983,88.7,147.5,-160,-160,147.5,,90,M,Дмитро Гак,Yes,Raw,B,147.5
11,Dmytro Shatokhin,O,1977,88.4,145,-152.5,-152.5,145,,90,M,Дмитро Шатохін,Yes,Raw,B,145
12,Gor Kazaryan,O,1982,89.4,145,-155,-155,145,,90,M,Гор Казарян,Yes,Raw,B,145
13,Dmytro Volkov,O,1984,89.5,-145,145,-155,145,,90,M,Дмитро Волков,Yes,Raw,B,145
14,Igor Ilchenko,O,1981,87.9,130,135,-145,135,,90,M,Ігор Ільченко,Yes,Raw,B,135
1,Dmytro Bobrovskyy,M1,1971,85.9,127.5,135,-140,135,,90,M,Дмитро Бобровський,Yes,Raw,B,135
NS,Rinat Zaripov,M1,1970,89.6,,,,,,90,M,Рінат Заріпов,Yes,Raw,B,
1,Oleksandr Lyubichev,M2,1962,90,120,130,140,140,,90,M,Олександр Любічев,Yes,Raw,B,140
1,Elman Gadzhiev,M3,1959,88.2,150,157.5,162.5,162.5,,90,M,Ельман Гаджієв,Yes,Raw,B,162.5
1,Ivan Kucherenko,T3,1993,97.1,140,152.5,-157.5,152.5,,100,M,Іван Кучеренко,Yes,Raw,B,152.5
2,Dmitro Zarazhevskiy,T3,1992,94.3,140,145,-150,145,,100,M,Дмитро Заражевський,Yes,Raw,B,145
DQ,Andriy Potapenko,T3,1992,95,-145,-145,-145,,,100,M,Андрій Потапенко,Yes,Raw,B,
1,Stanislav Smolyanyk,J,1989,97.7,190,-192.5,,190,,100,M,Станіслав Смоляник,Yes,Raw,B,190
2,Dmytro Lytvynenko,J,1989,98.9,175,190,-195,190,,100,M,Дмитро Литвиненко,Yes,Raw,B,190
3,Rodion Donenko,J,1989,92.2,160,-167.5,-167.5,160,,100,M,Родіон Доненко,Yes,Raw,B,160
4,Yuriy Khudyakov,J,1990,98.3,160,-167.5,-167.5,160,,100,M,Юрій Худяков,Yes,Raw,B,160
1,Oleksandr Reva,O,1982,96.8,-190,192.5,-200,192.5,,100,M,Олександр Рева,Yes,Raw,B,192.5
2,Volodymyr Ukhach,O,1960,97,170,180,190,190,,100,M,Володимир Ухач,Yes,Raw,B,190
3,Dmytro Lytvynenko,O,1989,98.9,175,190,-195,190,,100,M,Дмитро Литвиненко,Yes,Raw,B,190
4,Oleksiy Kuzmin,O,1983,97.9,180,185,-190,185,,100,M,Олексій Кузьмін,Yes,Raw,B,185
5,Dmytro Kozachenko,O,1987,97.2,167.5,175,180,180,,100,M,Дмитро Козаченко,Yes,Raw,B,180
6,Temur Yuldashev,O,1969,97.8,-180,-180,180,180,,100,M,Темур Юлдашев,Yes,Raw,B,180
7,Kostyantyn Zolotukhin,O,1975,99.3,152.5,167.5,175,175,,100,M,Костянтин Золотухін,Yes,Raw,B,175
8,Oleksandr Ageenko,O,1976,99.1,165,170,172.5,172.5,,100,M,Олександр Агєєнко,Yes,Raw,B,172.5
9,Kostyantyn Martynenko,O,1984,98,-167.5,167.5,-172.5,167.5,,100,M,Костянтин Мартиненко,Yes,Raw,B,167.5
10,Oleksiy Bondarenko,O,1981,98.1,155,162.5,-167.5,162.5,,100,M,Олексій Бондаренко,Yes,Raw,B,162.5
11,Yuriy Pysarev,O,1984,94.8,160,-165,-165,160,,100,M,Юрій Писарєв,Yes,Raw,B,160
12,Igor Legkokonets,O,1975,99.8,-135,-140,140,140,,100,M,Ігор Легкоконець,Yes,Raw,B,140
DQ,Rostyslav Klevtsov,O,1978,87.5,-140,-140,-140,,,100,M,Ростислав Клевцов,Yes,Raw,B,
DD,Denys Onufriyenko,O,1987,99.4,195,205,-212.5,205,,100,M,Денис Онуфрієнко,Yes,Raw,B,
1,Volodymyr Zolotashko,M1,1971,99.4,175,185,-190,185,,100,M,Володимир Золоташко,Yes,Raw,B,185
2,Temur Yuldashev,M1,1969,97.8,-180,-180,180,180,,100,M,Темур Юлдашев,Yes,Raw,B,180
3,Pavlo Kipnyak,M1,1969,97.9,-130,-130,130,130,,100,M,Павло Кіпняк,Yes,Raw,B,130
DQ,Dmitro Grigorev,M1,1971,98.3,-150,,,,,100,M,Дмитро Григорьєв,Yes,Raw,B,
1,Volodymyr Ukhach,M3,1960,97,170,180,190,190,,100,M,Володимир Ухач,Yes,Raw,B,190
1,Volodymyr Korshunov,M6,1942,94,125,132.5,137.5,137.5,,100,M,Володимир Коршунов,Yes,Raw,B,137.5
1,Sergiy Pysarenko,T1,1996,109.8,100,110,117.5,117.5,,110,M,Сергій Писаренко,Yes,Raw,B,117.5
1,Anton Yuzhakov,T3,1993,107.3,180,-190,195,195,,110,M,Антон Южаков,Yes,Raw,B,195
1,Dmytro Yegorenkov,J,1990,110,150,160,,160,,110,M,Дмитро Єгоренков,Yes,Raw,B,160
1,Anton Yuzhakov,O,1993,107.3,180,-190,195,195,,110,M,Антон Южаков,Yes,Raw,B,195
2,Andriy Savarets',O,1984,109.3,-190,190,195,195,,110,M,Андрій Саварець,Yes,Raw,B,195
3,Viktor Bozhukha,O,1978,107.7,165,-175,-175,165,,110,M,Віктор Божуха,Yes,Raw,B,165
DQ,Oleksiy Chukhnenko,O,1978,104,-180,-185,-185,,,110,M,Олексій Чухненко,Yes,Raw,B,
1,Yevgen Andreyaschenko,M1,1969,109.3,170,-175,175,175,,110,M,Євген Андреященко,Yes,Raw,B,175
2,V'yacheslav Arkhipov,M1,1970,106.5,140,-150,150,150,,110,M,В'ячеслав Архіпов,Yes,Raw,B,150
1,Surupasha Bambatgireev,M2,1966,108.7,160,170,175,175,,110,M,Сурупаша Бамбатгіреєв,Yes,Raw,B,175
1,Mykola Zinovyev,M3,1960,109.7,145,155,160,160,,110,M,Микола Зінов'єв,Yes,Raw,B,160
1,Dmytro Kurochkin,M4,1955,109.1,135,140,,140,,110,M,Дмитро Курочкін,Yes,Raw,B,140
2,Valentin Drobinko,M5,1952,107,112.5,-118,-118,112.5,,110,M,Валентин Дробинко,Yes,Raw,B,112.5
1,Oleksiy Syzonenko,J,1988,116.1,200,210,-220,210,,125,M,Олексій Сизоненко,Yes,Raw,B,210
2,Andriy Pavlenko,J,1989,117.4,-190,190,-200,190,,125,M,Андрій Павленко,Yes,Raw,B,190
1,Oleg Gridyakin,O,1974,113.2,217.5,227.5,230,230,,125,M,Олег Гридякін,Yes,Raw,B,230
2,Mykola Prezhyn,O,1981,122.5,170,185,192.5,192.5,,125,M,Микола Прежин,Yes,Raw,B,192.5
3,Andriy Pavlenko,O,1989,117.4,-190,190,-200,190,,125,M,Андрій Павленко,Yes,Raw,B,190
4,Oleksandr Moshonskyy,O,1977,118,190,-200,-200,190,,125,M,Олександр Мошонський,Yes,Raw,B,190
5,Ruslan Yakimenko,O,1985,110.2,170,180,-185,180,,125,M,Руслан Якименко,Yes,Raw,B,180
6,Pavlo Korchagin,O,1984,113.5,170,180,-185,180,,125,M,Павло Корчагін,Yes,Raw,B,180
7,Sergyy Zmievskyy,O,1982,113,165,170,175,175,,125,M,Сергій Змієвський,Yes,Raw,B,175
8,Stanislav Bogdanovych,O,1980,110.4,-165,170,-180,170,,125,M,Станіслав Богданович,Yes,Raw,B,170
9,Sergiy Shumskyy,O,1985,110.2,150,157.5,162.5,162.5,,125,M,Сергій Шумський,Yes,Raw,B,162.5
1,Oleksandr Stryga,M1,1967,120.4,200,210,222.5,222.5,-225,125,M,Олександр Стрига,Yes,Raw,B,222.5
2,Vladislav Marchenko,M1,1967,114.9,140,142.5,-145,142.5,,125,M,Владислав Марченко,Yes,Raw,B,142.5
1,Oleksandr Kalkutin,M2,1965,125,165,170,,170,,125,M,Олександр Калкутін,Yes,Raw,B,170
1,Yevgen Shuturminskyy,M2,1967,135.7,155,165,-170,165,,140,M,Євген Шутурмінський,Yes,Raw,B,165
1,Yaroslav Apalkov,T3,1993,141.4,130,140,150,150,,140+,M,Ярослав Апальков,Yes,Raw,B,150
1,Sergiy Veselovskiy,M1,1967,141.2,200,210,-217.5,210,,140+,M,Сергій Веселовський,Yes,Raw,B,210
1,Gella Lan,O,1975,51.8,45,50,-52.5,50,,52,F,Гелла Лань,Yes,Raw,B,50
1,Anna Kadatska,O,1977,56,95,-101,101,101,,56,F,Анна Кадацька,No,Raw,B,101
1,Olga Grushevska,J,1989,71,45,-50,50,50,,75,F,Ольга Грушевська,No,Raw,B,50
1,Anna Kurkurina,M2,1966,74,-120,125,-130,125,,75,F,Анна Куркуріна,No,Raw,B,125
1,Yegor Kurochkin,T1,1999,39.5,25,30,-32.5,30,,52,M,Єгор Курочкін,No,Raw,B,30
1,Mykhaylo Doskoch,T2,1994,67.2,-105,105,-110,105,,67.5,M,Михайло Доскоч,No,Raw,B,105
2,Andriy Panasyuk,T2,1994,62.5,80,-90,90,90,,67.5,M,Андрій Панасюк,No,Raw,B,90
1,Stanislav Khaitov,J,1990,67.3,140,152.5,,152.5,,67.5,M,Станіслав Хаїтов,No,Raw,B,152.5
1,Ivan Kozykov,T2,1994,73.3,120,-125,-127.5,120,,75,M,Іван Козиков,No,Raw,B,120
1,Igor Gasyuk,J,1988,74.2,150,160,170,170,,75,M,Игорь Гасюк,No,Raw,B,170
2,Roman Lyubarenko,J,1991,74.2,100,-115,115,115,,75,M,Роман Любаренко,No,Raw,B,115
1,Sergiy Zavalnyuk,J,1992,82.1,130,140,-150,140,,82.5,M,Сергій Завальнюк,No,Raw,B,140
2,Arman Badalyan,J,1991,82.3,130,135,140,140,,82.5,M,Арман Бадалян,No,Raw,B,140
1,Roman Plakhotin,O,1986,82,170,-180,-180,170,,82.5,M,Роман Плахотін,No,Raw,B,170
2,Andriy Kudryavtsev,O,1974,75.6,140,150,155,155,,82.5,M,Андрій Кудрявцев,No,Raw,B,155
3,Pavlo Dvertsevoy,O,1986,78,115,122.5,127.5,127.5,,82.5,M,Павло Дверцевой,No,Raw,B,127.5
1,Boris Scherbak,J,1991,86.9,150,-160,-160,150,,90,M,Борис Щербак,No,Raw,B,150
1,Oleksiy Poroshyn,O,1977,88.9,150,160,-165,160,,90,M,Олексій Порошин,No,Raw,B,160
1,Sergiy Kazenko,T2,1994,98.9,90,105,115,115,,100,M,Сергій Казенко,No,Raw,B,115
1,Yevgen Moiseev,J,1991,97.4,185,195,-200,195,,100,M,Євген Моїсеєв,No,Raw,B,195
1,Yevgen Moiseev,O,1991,97.4,185,195,-200,195,,100,M,Євген Моїсеєв,No,Raw,B,195
2,Igor Yekimenko,O,1976,99.7,185,-195,-195,185,,100,M,Ігор Єкименко,No,Raw,B,185
1,Viktor Babenko,M2,1963,92.7,150,161,-165,161,,100,M,Віктор Бабенко,No,Raw,B,161
1,Sergiy Korolenko,O,1977,106,205,220,-230,220,,110,M,Сергій Короленко,No,Raw,B,220
2,Dmytro Shtankov,O,1984,108.5,180,190,-195,190,,110,M,Дмитро Штанков,No,Raw,B,190
1,Kostyantyn Tarasyk,M1,1971,107,150,155,160,160,,110,M,Костянтин Тарасик,No,Raw,B,160
1,Kostyantyn Dmytriev,O,1987,123.2,200,210,-230,210,,125,M,Костянтин Дмитрієв,No,Raw,B,210
2,Georgiy Pavlovych,O,1986,117.5,190,200,-210,200,,125,M,Георгій Павлович,No,Raw,B,200
3,Ivan Polyvko,O,1980,119.1,180,190,-210,190,,125,M,Іван Поливко,No,Raw,B,190
1,Mykhailo Nevzorov,M3,1961,137.5,195,205,-210,205,,140,M,Михайло Невзоров,No,Raw,B,205
1,Inna Yudina,O,1978,75,80,-85,,80,,75,F,Інна Юдіна,Yes,Multi-ply,B,80
1,Vladislav Bondarenko,T1,1999,32.2,37.5,40,42.5,42.5,,52,M,Владислав Бондаренко,Yes,Multi-ply,B,42.5
1,Sergiy Boryuk,O,1985,59.9,-150,150,160.5,160.5,,60,M,Сергій Борюк,Yes,Multi-ply,B,160.5
1,Olexiy Gornyy,T3,1992,61.2,115,120,127.5,127.5,,67.5,M,Олексій Горний,Yes,Multi-ply,B,127.5
2,Stanislav Chygyryns'kyy,T3,1994,66.2,85,92.5,-95,92.5,,67.5,M,Станіслав Чигиринський,Yes,Multi-ply,B,92.5
1,Stanislav Chygyryns'kyy,O,1994,66.2,85,92.5,-95,92.5,,67.5,M,Станіслав Чигиринський,Yes,Multi-ply,B,92.5
1,Oleksandr Kyrylenko,T2,1994,75,120,130,-140,130,,75,M,Олександр Кириленко,Yes,Multi-ply,B,130
1,Anton Fedorenko,O,1985,75,165,172.5,-177.5,172.5,,75,M,Антон Федоренко,Yes,Multi-ply,B,172.5
2,Oleksiy Slyuschenko,O,1984,73.3,155,165,-172.5,165,,75,M,Олексій Слющенко,Yes,Multi-ply,B,165
3,Igor Andrusyk,O,1988,74,140,-147.5,-147.5,140,,75,M,Ігор Андрусик,Yes,Multi-ply,B,140
1,Denys Rekhletskyy,J,1991,78,170,180,-185,180,,82.5,M,Денис Рехлецький,Yes,Multi-ply,B,180
1,Svyatoslav Ogrenchuk,O,1978,81,175,-180,180,180,,82.5,M,Святослав Огренчук,Yes,Multi-ply,B,180
1,Igor Lutsenko,T2,1994,83.3,-140,-140,140,140,,90,M,Ігор Луценко,Yes,Multi-ply,B,140
DQ,Maxym Fesun,T2,1995,89.2,-130,-135,-135,,,90,M,Максим Фесун,Yes,Multi-ply,B,
1,Gennadiy Yazev,J,1990,88.9,-195,195,-205,195,,90,M,Геннадій Язєв,Yes,Multi-ply,B,195
1,Rostyslav Bondarenko,O,1972,89,200,210,215,215,,90,M,Ростислав Бондаренко,Yes,Multi-ply,B,215
2,Denys Borodenko,O,1981,90,210,-220,-220,210,,90,M,Денис Бороденко,Yes,Multi-ply,B,210
2,Vitaliy Fedorchenko,O,1977,90,210,-220,-220,210,,90,M,Віталій Федорченко,Yes,Multi-ply,B,210
1,Igor Shubin,M2,1964,86.3,130,,,130,,90,M,Ігор Шубін,Yes,Multi-ply,B,130
1,Elman Gadzhiev,M3,1959,88.2,195.5,205,-210,205,,90,M,Ельман Гаджієв,Yes,Multi-ply,B,205
1,Yevgen Savchenko,J,1989,98.9,230,240,-250,240,,100,M,Євген Савченко,Yes,Multi-ply,B,240
2,Sergiy Kovalev,J,1988,92.7,170,175,180,180,,100,M,Сергій Ковальов,Yes,Multi-ply,B,180
NS,Dmitro Yashniy,J,1988,99,,,,,,100,M,Дмитро Яшний,Yes,Multi-ply,B,
1,Ruslan Rudenko,O,1982,99.2,-250,250,255,255,,100,M,Руслан Руденко,Yes,Multi-ply,B,255
2,Sergiy Kovalev,O,1988,92.7,170,175,180,180,,100,M,Сергій Ковальов,Yes,Multi-ply,B,180
3,Volodymyr Chygyrynskyy,O,1962,96.2,165,175.5,180,180,,100,M,Володимир Чигиринський,Yes,Multi-ply,B,180
4,Andriy Sviderskyy,O,1985,93,170,-180,-180,170,,100,M,Андрій Свидерський,Yes,Multi-ply,B,170
DQ,Denys Kovalyov,O,1978,99.9,-235,,,,,100,M,Денис Ковальов,Yes,Multi-ply,B,
1,Volodymyr Chygyrynskyy,M2,1962,96.2,165,175.5,180,180,,100,M,Володимир Чигиринський,Yes,Multi-ply,B,180
1,Andriy Lomnitskiy,O,1980,107.8,240,250,257.5,257.5,,110,M,Андрій Ломницький,Yes,Multi-ply,B,257.5
2,Sergiy Borishanskyy,O,1977,109.2,210,225,235,235,,110,M,Сергій Боришанський,Yes,Multi-ply,B,235
1,Vladyslav Fesun,M1,1967,108,180,190,-195,190,,110,M,Владислав Фесун,Yes,Multi-ply,B,190
2,V'yacheslav Arkhipov,M1,1970,106.5,-160,160,167.5,167.5,,110,M,В'ячеслав Архіпов,Yes,Multi-ply,B,167.5
1,Borys Kovbasyuk,M2,1966,105.3,-200,200,-205,200,,110,M,Борис Ковбасюк,Yes,Multi-ply,B,200
1,Yevgen Golovchenko,M6,1946,103,120,-130,130,130,,110,M,Євген Головченко,Yes,Multi-ply,B,130
1,Oleksandr Blagovidov,M1,1971,119.5,-250,250,-260,250,,125,M,Олександр Благовидов,Yes,Multi-ply,B,250
1,Dmytro Sharoyko,O,1972,127.4,-270,-270,270,270,,140,M,Дмитро Шаройко,Yes,Multi-ply,B,270
DQ,Vusal Gumbatov,J,1989,67.3,-150,,,,,67.5,M,Вусал Гумбатов,No,Multi-ply,B,
1,Oleksandr Kovalenko,O,1983,64.6,190,-207.5,-207.5,190,,67.5,M,Олександр Коваленко,No,Multi-ply,B,190
1,Ivan Shevchenko,J,1990,73.8,125,130,135,135,,75,M,Иван Шевченко,No,Multi-ply,B,135
1,Stanislav Marochko,O,1981,70.6,150,160,-170,160,,75,M,Станислав Марочко,No,Multi-ply,B,160
1,Sergiy Prodan,J,1989,82.3,-180,-185,185,185,,82.5,M,Сергій Продан,No,Multi-ply,B,185
1,Sergiy Naleykin,O,1981,82.3,-290,290,-300,290,,82.5,M,Сергій Налейкін,No,Multi-ply,B,290
1,Yuriy Muzychenko,O,1986,88.5,120,130,-140,130,,90,M,Юрій Музиченко,No,Multi-ply,B,130
1,Sergiy Ivanov,J,1990,100,-260,260,-280,260,,100,M,Сергій Іванов,No,Multi-ply,B,260
DQ,Ivan Malovychko,J,1990,95.5,-230,-230,-230,,,100,M,Іван Маловичко,No,Multi-ply,B,
1,Vitaliy Umrykhin,O,1984,103,220,-225,-225,220,,110,M,Віталій Умрихін,No,Multi-ply,B,220
2,Arsen Doga,O,1987,106.3,210,220,-225,220,,110,M,Арсен Дога,No,Multi-ply,B,220
1,Oleksandr Taranishyn,O,1982,111.5,215,-265,-265,215,,125,M,Олександр Таранішин,No,Multi-ply,B,215
DQ,Vitaliy Chorniy,O,1984,121.4,-300,-300,,,,125,M,Віталій Чорний,No,Multi-ply,B,
1,Vadym Filippov,O,1973,128,-170,170,-180,170,,140,M,Вадим Філіппов,No,Multi-ply,B,170
DQ,Kostyantyn Golubev,M3,1962,96,-220,,,,,140,M,Костянтин Голубєв,No,Multi-ply,B,
