Place,Sex,Name,Event,Division,WeightClassKg,Equipment,BirthYear,Team,State,BodyweightKg,Squat1Kg,Squat2Kg,Squat3Kg,Best3SquatKg,Bench1Kg,Bench2Kg,Bench3Kg,Best3BenchKg,Deadlift1Kg,Deadlift2Kg,Deadlift3Kg,Best3DeadliftKg,TotalKg
1,F,Bianca Martinez,SBD,C,43,Single-ply,1998,,TX,42.4,97.5,-102.5,102.5,102.5,47.5,52.5,55,55,107.5,115,117.5,117.5,275
2,F,Kenah Garcia,SBD,C,43,Single-ply,1994,University of Houston - Downtown,TX,41.9,97.5,105,-115,105,45,-50,-50,45,97.5,107.5,-125,107.5,257.5
3,F,Lia Ranalli,SBD,C,43,Single-ply,1994,Pennsylvania State University,PA,42.4,-67.5,72.5,77.5,77.5,37.5,40,-42.5,40,82.5,87.5,92.5,92.5,210
1,F,Ashley Guzman,SBD,C,47,Single-ply,1995,University of Texas at Austin,TX,46.7,-142.5,147.5,-153,147.5,70,75,-80,75,117.5,127.5,135,135,357.5
2,F,Kyra Rodriguez,SBD,C,47,Single-ply,1997,Texas A&M Kingsville,TX,46.1,130,-140,140,140,-62.5,62.5,65,65,130,-142.5,-142.5,130,335
3,F,Robyn Mcinnis,SBD,C,47,Single-ply,1994,Northeastern University,MA,45.8,105,112.5,-120,112.5,50,55,-57.5,55,105,112.5,120,120,287.5
4,F,Yazmin Trujillo,SBD,C,47,Single-ply,1995,University of Houston - Downtown,TX,46.8,-90,90,107.5,107.5,50,55,-62.5,55,87.5,97.5,107.5,107.5,270
5,F,Allie Champagne,SBD,C,47,Single-ply,1997,University of Louisiana At Lafayette,LA,46.7,77.5,-87.5,-87.5,77.5,50,55,-57.5,55,70,82.5,-95,82.5,215
DQ,F,Jenica Flores,SBD,C,47,Single-ply,1997,Sam Houston State University,TX,46.4,-130,-130,-130,,57.5,62.5,-67.5,62.5,130,137.5,-142.5,137.5,
DQ,F,Rosio Berumen,SBD,C,47,Single-ply,1997,University of Texas at San Antonio,TX,46.5,-137.5,-137.5,-137.5,,60,62.5,-67.5,62.5,-142.5,-142.5,-142.5,,
1,F,Victoria Vargas,SBD,C,52,Single-ply,1994,University of Texas at San Antonio,TX,51.3,172.5,182.5,187.5,187.5,117.5,127.5,132.5,132.5,162.5,175,-185,175,495
2,F,Andie Hernandez,SBD,C,52,Single-ply,1997,University of Texas at Austin,TX,51.8,145,152.5,157.5,157.5,85,90,95,95,137.5,145,152.5,152.5,405
3,F,Alyson Galanga,SBD,C,52,Single-ply,1997,University of Texas at Austin,TX,51,-130,130,142.5,142.5,67.5,72.5,77.5,77.5,165,175,-185,175,395
4,F,Elma Lopez,SBD,C,52,Single-ply,1997,Texas A&M Kingsville,TX,51.3,135,-140,140,140,75,82.5,-90,82.5,135,142.5,-150,142.5,365
5,F,Kelsey Ewart,SBD,C,52,Single-ply,1995,Sam Houston State University,TX,51.5,122.5,132.5,-140,132.5,65,70,-75,70,117.5,127.5,132.5,132.5,335
6,F,Jamie Broussard,SBD,C,52,Single-ply,1997,University of Louisiana At Lafayette,LA,51.1,117.5,122.5,127.5,127.5,65,70,75,75,110,117.5,-127.5,117.5,320
7,F,Lilly Aguilar,SBD,C,52,Single-ply,1998,University of Texas at San Antonio,TX,51.2,115,120,132.5,132.5,57.5,62.5,67.5,67.5,120,-130,-135,120,320
8,F,Savannah Gray,SBD,C,52,Single-ply,1995,Louisiana State University,LA,51.7,120,130,-132.5,130,55,60,-62.5,60,115,120,-130,120,310
9,F,Michelle Ryan,SBD,C,52,Single-ply,1994,Northeastern University,MA,51.9,120,130,-135,130,70,-72.5,-72.5,70,110,-117.5,-117.5,110,310
10,F,Haley Baudoin,SBD,C,52,Single-ply,1996,,LA,51.4,107.5,-115,115,115,62.5,67.5,70,70,100,110,-125,110,295
11,F,Emily Schovanec,SBD,C,52,Single-ply,1997,Louisiana State University,LA,50.7,102.5,107.5,-110,107.5,52.5,55,57.5,57.5,102.5,110,115,115,280
12,F,Moriah Moore,SBD,C,52,Single-ply,1997,Sam Houston State University,TX,51,92.5,-100,100,100,40,47.5,55,55,102.5,110,-122.5,110,265
13,F,Marissa Huckabay,SBD,C,52,Single-ply,1997,Louisiana Tech,LA,51.3,92.5,-105,105,105,32.5,35,-37.5,35,85,95,102.5,102.5,242.5
DQ,F,Erika Peralta,SBD,C,52,Single-ply,1996,University of Texas at San Antonio,TX,51.3,-147.5,-147.5,-147.5,,72.5,-80,-80,72.5,122.5,-135,-135,122.5,
1,F,Lauren Lent,SBD,C,57,Single-ply,1997,University of Wisconsin Milwaukee,WI,56.4,185,197.5,202.5,202.5,97.5,102.5,105,105,170,182.5,192.5,192.5,500
2,F,Marie Cavazos,SBD,C,57,Single-ply,1998,University of Texas at San Antonio,TX,56.9,-185,185,192.5,192.5,-105,-105,105,105,150,155,-160,155,452.5
3,F,Jodel Patino,SBD,C,57,Single-ply,1997,Midland University,TX,56.4,152.5,165,175,175,-100,-100,100,100,155,-167.5,-177.5,155,430
4,F,Carmen Reiss,SBD,C,57,Single-ply,1996,University of Louisiana At Lafayette,LA,56,135,-142.5,147.5,147.5,90,95,97.5,97.5,135,140,145,145,390
5,F,Aislinn Curry,SBD,C,57,Single-ply,1997,University of Rhode Island,RI,55.6,125,132.5,-140,132.5,72.5,-77.5,77.5,77.5,115,125,132.5,132.5,342.5
6,F,Alexis Wiley,SBD,C,57,Single-ply,1997,Louisiana State University,LA,54.2,115,125,130,130,65,70,-72.5,70,112.5,122.5,-127.5,122.5,322.5
7,F,Christi Johnson,SBD,C,57,Single-ply,1996,Sam Houston State University,TX,56.2,102.5,112.5,120,120,52.5,-60,-60,52.5,130,140,-150,140,312.5
8,F,Nicole Moise,SBD,C,57,Single-ply,1996,Louisiana State University,LA,56.4,120,-130,-130,120,65,70,-75,70,117.5,-125,-125,117.5,307.5
9,F,Ciana Moreno,SBD,C,57,Single-ply,1995,Northeastern University,MA,55.2,110,117.5,-125,117.5,55,60,-62.5,60,100,-110,110,110,287.5
10,F,Alison Linch,SBD,C,57,Single-ply,1995,Mississippi State University,MS,56.5,97.5,105,115,115,42.5,-52.5,52.5,52.5,92.5,102.5,115,115,282.5
11,F,Shantika Page,SBD,C,57,Single-ply,1995,Mississippi State University,MS,55.4,92.5,97.5,-107.5,97.5,35,45,47.5,47.5,100,115,127.5,127.5,272.5
12,F,Jenney Ainsworth,SBD,C,57,Single-ply,1998,University of Louisiana At Lafayette,LA,53.8,87.5,-92.5,-92.5,87.5,37.5,42.5,-50,42.5,85,92.5,100,100,230
1,F,Alana Montes,SBD,C,63,Single-ply,1998,University of Texas at San Antonio,TX,62.5,182.5,192.5,202.5,202.5,102.5,-107.5,-107.5,102.5,160,172.5,182.5,182.5,487.5
2,F,Marisa Lara,SBD,C,63,Single-ply,1994,Pennsylvania State University,VA,62.8,-170,180,-185,180,-110,110,115,115,162.5,172.5,-187.5,172.5,467.5
3,F,Giovanna Ortega,SBD,C,63,Single-ply,1994,Texas State University,TX,61.3,187.5,192.5,-200,192.5,102.5,-105,105,105,165,-177.5,-177.5,165,462.5
4,F,Alyssa Gaitan,SBD,C,63,Single-ply,1995,,TX,62.6,165,-175,-175,165,85,95,-100,95,165,170,-172.5,170,430
5,F,Caitlyn Buck,SBD,C,63,Single-ply,1994,,TX,61.8,155,162.5,167.5,167.5,90,-95,-95,90,155,165,-170,165,422.5
6,F,Shelby Gray,SBD,C,63,Single-ply,1996,Texas A&M Kingsville,TX,61.8,152.5,162.5,167.5,167.5,-92.5,-92.5,92.5,92.5,152.5,-162.5,-167.5,152.5,412.5
7,F,Sara Pelletier,SBD,C,63,Single-ply,1994,Pennsylvania State University,PA,61.9,157.5,-167.5,175,175,-80,80,82.5,82.5,-142.5,142.5,-172.5,142.5,400
8,F,Haley Gregorio,SBD,C,63,Single-ply,1998,University of Wisconsin Milwaukee,WI,61.5,130,140,150,150,67.5,72.5,-80,72.5,155,162.5,170,170,392.5
9,F,Kaitlyn Hearty,SBD,C,63,Single-ply,1997,Louisiana State University,LA,62.7,155,-162.5,162.5,162.5,75,-80,-80,75,152.5,-157.5,-157.5,152.5,390
10,F,Kaitlyn Mulkey,SBD,C,63,Single-ply,1995,Texas A&M Kingsville,TX,62.8,152.5,157.5,-162.5,157.5,75,-77.5,77.5,77.5,142.5,147.5,-152.5,147.5,382.5
11,F,Jessie Mouton,SBD,C,63,Single-ply,1993,University of Louisiana At Lafayette,LA,60.6,-137.5,137.5,145,145,70,77.5,82.5,82.5,145,150,-152.5,150,377.5
12,F,Alexandra Ziepke,SBD,C,63,Single-ply,1996,,WI,61.6,140,142.5,-150,142.5,82.5,87.5,-90,87.5,142.5,147.5,-152.5,147.5,377.5
14,F,Sharmin Mahmud,SBD,C,63,Single-ply,1996,Northeastern University,MA,62.3,-150,150,-155,150,75,82.5,85,85,125,132.5,-140,132.5,367.5
13,F,Jasmine Ruiz,SBD,C,63,Single-ply,1997,University of Houston - Downtown,TX,62.3,147.5,155,-162.5,155,87.5,-97.5,-97.5,87.5,125,-140,,125,367.5
15,F,Virginia Villani,SBD,C,63,Single-ply,1996,,VA,61.4,130,135,145,145,-70,70,-75,70,140,147.5,-155,147.5,362.5
16,F,Kylie Podeswa,SBD,C,63,Single-ply,1998,Northeastern University,NY,62,125,135,142.5,142.5,-70,70,75,75,115,127.5,137.5,137.5,355
17,F,Jess Alaniz,SBD,C,63,Single-ply,1996,University of Houston,TX,62,-130,130,137.5,137.5,52.5,-57.5,57.5,57.5,145,-155,-155,145,340
18,F,Kali Mendez,SBD,C,63,Single-ply,1996,,TX,60.9,-102.5,102.5,115,115,52.5,57.5,65,65,115,125,-137.5,125,305
19,F,Melanie Madere,SBD,C,63,Single-ply,1998,University of Louisiana At Lafayette,LA,61.5,112.5,117.5,-122.5,117.5,52.5,57.5,-60,57.5,110,120,130,130,305
20,F,Melissa Ho,SBD,C,63,Single-ply,1994,Northeastern University,MA,62,120,130,135,135,60,65,70,70,100,-110,-110,100,305
21,F,Kori Wooten,SBD,C,63,Single-ply,1995,University of Texas at Austin,TX,59.8,100,102.5,115,115,57.5,62.5,67.5,67.5,110,117.5,-122.5,117.5,300
22,F,Krystyna Fullwood,SBD,C,63,Single-ply,1996,Louisiana Tech,LA,60.5,97.5,105,-115,105,60,65,-67.5,65,115,122.5,130,130,300
1,F,Kelsey McCarthy,SBD,C,72,Single-ply,1992,Northeastern University,MA,69.2,225,-237.5,237.5,237.5,137.5,145,150,150,190,202.5,212.5,212.5,600
2,F,Lydia Mele,SBD,C,72,Single-ply,1998,,GA,71.4,172.5,180,185,185,127.5,130,132.5,132.5,165,175,-180,175,492.5
3,F,Hannah Ghindea,SBD,C,72,Single-ply,1992,Louisiana State University,LA,69.2,182.5,190,200,200,90,95,100,100,180,190,-200,190,490
4,F,Kate Driscoll,SBD,C,72,Single-ply,1994,Northeastern University,MA,69.6,185,197.5,-202.5,197.5,107.5,112.5,-115,112.5,165,180,-192.5,180,490
5,F,Gabby Martinez,SBD,C,72,Single-ply,1997,University of Texas at San Antonio,TX,71,185,197.5,210,210,100,-105,-105,100,170,180,-192.5,180,490
6,F,Dominique McGaha,SBD,C,72,Single-ply,1994,University of Texas at Austin,TX,70.8,182.5,-192.5,192.5,192.5,95,100,-105,100,195,-207.5,-207.5,195,487.5
7,F,Skyler Briggs,SBD,C,72,Single-ply,1995,United States Naval Academy,MD,69.9,165,-172.5,172.5,172.5,-125,125,-130,125,175,185,-192.5,185,482.5
8,F,Cheyenne Liles,SBD,C,72,Single-ply,1996,Texas A&M Kingsville,TX,71.7,172.5,185,195,195,100,110,115,115,170,-180,-182.5,170,480
9,F,Danielle Ross,SBD,C,72,Single-ply,1995,University of Texas at San Antonio,TX,69.6,182.5,-192.5,-192.5,182.5,130,-137.5,137.5,137.5,137.5,145,-155,145,465
10,F,Genesis Frazar,SBD,C,72,Single-ply,1995,Texas A&M Kingsville,TX,71.5,170,182.5,-190,182.5,92.5,-97.5,-97.5,92.5,175,180,185,185,460
11,F,Maria Toledo,SBD,C,72,Single-ply,1993,Sam Houston State University,TX,70.3,170,-180,180,180,-100,-100,100,100,150,160,-165,160,440
12,F,Amber Kierstyn,SBD,C,72,Single-ply,1998,,WI,70.8,157.5,162.5,-172.5,162.5,-85,-85,85,85,175,180,187.5,187.5,435
13,F,Tina Zheng,SBD,C,72,Single-ply,1997,Northeastern University,MA,69.5,160,172.5,182.5,182.5,80,85,90,90,132.5,147.5,160,160,432.5
14,F,Katie Salerni,SBD,C,72,Single-ply,1996,United States Naval Academy,MD,71.4,127.5,135,145,145,95,-102.5,-102.5,95,150,155,167.5,167.5,407.5
15,F,Courtney Byrne,SBD,C,72,Single-ply,1995,University of Texas at Austin,TX,69.5,145,155,167.5,167.5,82.5,87.5,92.5,92.5,125,-140,140,140,400
16,F,Brittany Bond,SBD,C,72,Single-ply,1996,Midland University,AK,70.7,142.5,152.5,157.5,157.5,80,-87.5,-87.5,80,147.5,157.5,-165,157.5,395
17,F,Yaqing Guo,SBD,C,72,Single-ply,1998,Northeastern University,MA,65.6,135,150,160,160,82.5,95,100,100,97.5,110,125,125,385
18,F,Jennifer Fofi,SBD,C,72,Single-ply,1995,Pennsylvania State University,VA,70.2,145,155,162.5,162.5,70,75,-80,75,115,125,135,135,372.5
19,F,Megan Doyle,SBD,C,72,Single-ply,1997,University of North Texas,TX,71.8,137.5,147.5,-152.5,147.5,-65,65,-70,65,137.5,157.5,-167.5,157.5,370
20,F,Karnee Berejiklian,SBD,C,72,Single-ply,1996,Northeastern University,MA,70.6,145,155,160,160,70,-75,75,75,122.5,132.5,-137.5,132.5,367.5
21,F,Sarah Use,SBD,C,72,Single-ply,1994,University of Louisiana At Lafayette,LA,68.4,122.5,127.5,135,135,-102.5,-102.5,102.5,102.5,125,-130,-130,125,362.5
22,F,Jessica Krueger,SBD,C,72,Single-ply,1996,University of Wisconsin Milwaukee,WI,70.1,122.5,132.5,145,145,62.5,70,-75,70,127.5,142.5,-157.5,142.5,357.5
23,F,Caitlyn Cooper,SBD,C,72,Single-ply,1998,University of Wisconsin Milwaukee,WI,65.1,122.5,132.5,145,145,67.5,-75,75,75,120,135,-152.5,135,355
24,F,Morgan Stahl,SBD,C,72,Single-ply,1997,Northeastern University,MA,68.1,115,125,-132.5,125,95,-102.5,-102.5,95,115,125,132.5,132.5,352.5
25,F,Mackenzie Chase,SBD,C,72,Single-ply,1998,University of Wisconsin Milwaukee,WI,68.8,120,130,142.5,142.5,52.5,-57.5,60,60,115,125,137.5,137.5,340
26,F,Megan Kupser,SBD,C,72,Single-ply,1995,,FL,64.5,125,137.5,145,145,62.5,65,-70,65,107.5,115,-122.5,115,325
27,F,Caitlyn Casten,SBD,C,72,Single-ply,1996,,FL,71,125,-142.5,-150,125,62.5,70,-82.5,70,127.5,-145,-150,127.5,322.5
28,F,Rachael McFarland,SBD,C,72,Single-ply,1995,Sam Houston State University,TX,70.6,105,117.5,120,120,60,67.5,72.5,72.5,110,120,122.5,122.5,315
DQ,F,Niesa Nelson,SBD,C,72,Single-ply,1996,Northeastern University,NY,69.6,115,125,135,135,-70,-70,-70,,130,140,-150,140,
DQ,F,Miranda Garcia,SBD,C,72,Single-ply,1997,University of Texas at San Antonio,TX,69.8,-145,-145,-147.5,,-82.5,-82.5,-82.5,,140,-147.5,150,150,
DQ,F,Delaine Rodick,SBD,C,72,Single-ply,1997,Louisiana Tech,LA,70.9,-165,-165,-165,,80,87.5,92.5,92.5,125,140,150,150,
1,F,Sarah Davis,SBD,C,84,Single-ply,1995,Texas A&M Kingsville,FL,83.6,197.5,205,210,210,140,-146,146,146,195,202.5,207.5,207.5,563.5
2,F,Dakota Young,SBD,C,84,Single-ply,1996,University of Texas at San Antonio,TX,76,210,220,227.5,227.5,-117.5,-117.5,120,120,180,190,202.5,202.5,550
3,F,Crystal Garcia,SBD,C,84,Single-ply,1998,Sam Houston State University,TX,79.2,195,202.5,212.5,212.5,-97.5,100,107.5,107.5,172.5,182.5,-187.5,182.5,502.5
4,F,Zena Esquivel,SBD,C,84,Single-ply,1997,University of Texas at San Antonio,TX,83,-190,190,205,205,125,132.5,140,140,150,-155,155,155,500
5,F,Cassandra Czarn,SBD,C,84,Single-ply,1994,University of Rhode Island,RI,82.5,185,-190,-195,185,115,122.5,132.5,132.5,150,165,177.5,177.5,495
6,F,Talia Ramirez,SBD,C,84,Single-ply,1995,Sam Houston State University,TX,73.8,197.5,210,-217.5,210,95,97.5,100,100,177.5,182.5,-190,182.5,492.5
7,F,Hana Shuck,SBD,C,84,Single-ply,1995,Northeastern University,MA,81.1,215,225,-235,225,-105,105,-110,105,150,160,162.5,162.5,492.5
8,F,Camille Hamilton,SBD,C,84,Single-ply,1997,Louisiana State University,TX,72.3,182.5,192.5,205,205,80,87.5,92.5,92.5,165,175,187.5,187.5,485
9,F,Nicole Maalouf,SBD,C,84,Single-ply,1994,Northeastern University,MA,75.1,185,-195,-195,185,130,-137.5,-137.5,130,145,155,-165,155,470
10,F,Danielle Kent,SBD,C,84,Single-ply,1996,University of Texas at San Antonio,TX,78,175,185,195,195,95,100,-105,100,160,-165,-165,160,455
11,F,Rachel Blair,SBD,C,84,Single-ply,1996,Midland University,NE,79.5,160,170,177.5,177.5,97.5,110,-112.5,110,162.5,-175,-182.5,162.5,450
12,F,Marissa Gentle,SBD,C,84,Single-ply,1995,Pennsylvania State University,PA,74.5,165,-172.5,172.5,172.5,100,105,-110,105,150,160,167.5,167.5,445
13,F,Ashley Vasquez,SBD,C,84,Single-ply,1994,Sam Houston State University,TX,82.1,147.5,-162.5,-162.5,147.5,97.5,102.5,-110,102.5,150,165,-172.5,165,415
14,F,Madelynn Mahoney,SBD,C,84,Single-ply,1997,University of Houston,TX,79.8,140,147.5,160,160,85,95,102.5,102.5,125,132.5,142.5,142.5,405
15,F,Shannon Croatto,SBD,C,84,Single-ply,1995,Northeastern University,MA,77.4,160,-172.5,172.5,172.5,75,82.5,-85,82.5,-145,145,-160,145,400
16,F,Taysia Coleman,SBD,C,84,Single-ply,1998,Louisiana State University,LA,74.3,147.5,155,157.5,157.5,72.5,-75,75,75,142.5,155,-160,155,387.5
17,F,Emily Fisher,SBD,C,84,Single-ply,1995,Louisiana State University,LA,75.3,140,-142.5,,140,80,85,92.5,92.5,-142.5,145,155,155,387.5
18,F,Jasmen Perry,SBD,C,84,Single-ply,1998,University of Houston,TX,81.5,125,132.5,140,140,70,77.5,-92.5,77.5,170,-180,-180,170,387.5
19,F,Elizabeth Sledzinski,SBD,C,84,Single-ply,1995,Pennsylvania State University,PA,80.6,155,162.5,-167.5,162.5,-90,97.5,-105,97.5,112.5,122.5,-135,122.5,382.5
20,F,Hunter Soileau,SBD,C,84,Single-ply,1998,University of Louisiana At Lafayette,LA,82.5,130,140,155,155,55,-65,-65,55,110,120,130,130,340
21,F,Emily St. Germaine,SBD,C,84,Single-ply,1998,University of Louisiana At Lafayette,LA,79.2,-115,115,125,125,62.5,77.5,-80,77.5,125,135,-137.5,135,337.5
22,F,Amanda Montesano,SBD,C,84,Single-ply,1994,University of Louisiana At Lafayette,LA,79.6,-140,140,150,150,55,65,-80,65,-90,90,95,95,310
DQ,F,Morgan Dynes,SBD,C,84,Single-ply,1997,Louisiana State University,LA,78.9,160,167.5,-175,167.5,-82.5,-85,-85,,162.5,170,182.5,182.5,
1,F,Viviana Flores,SBD,C,84+,Single-ply,1996,Texas A&M Kingsville,TX,121,255,275,287.5,287.5,-132.5,132.5,-137.5,132.5,165,170,172.5,172.5,592.5
2,F,Jaelynn Clark,SBD,C,84+,Single-ply,1996,University of Texas at San Antonio,TX,110.2,-232.5,232.5,240,240,-142.5,150,-155,150,182.5,-195,-202.5,182.5,572.5
3,F,Shatara Warner,SBD,C,84+,Single-ply,1993,Louisiana State University,LA,140.2,182.5,-192.5,-192.5,182.5,112.5,122.5,135,135,155,167.5,190,190,507.5
4,F,Sophia Woychik,SBD,C,84+,Single-ply,1997,,WI,115.7,192.5,-202.5,202.5,202.5,90,100,107.5,107.5,172.5,182.5,192.5,192.5,502.5
5,F,Moriah Buckwalter,SBD,C,84+,Single-ply,1995,Northeastern University,MA,107.1,185,197.5,205,205,105,-112.5,-112.5,105,150,160,-170,160,470
6,F,Amber Blankemeyer,SBD,C,84+,Single-ply,1995,University of Houston - Downtown,TX,113.5,167.5,175,187.5,187.5,97.5,107.5,117.5,117.5,165,-175,-182.5,165,470
7,F,Drew Rath,SBD,C,84+,Single-ply,1995,Sam Houston State University,TX,149.5,160,-172.5,172.5,172.5,110,122.5,-132.5,122.5,145,160,170,170,465
8,F,Emily Sherman,SBD,C,84+,Single-ply,1998,University of Louisiana At Lafayette,LA,118.9,170,182.5,190,190,102.5,110,117.5,117.5,-135,135,140,140,447.5
9,F,Casey Riche,SBD,C,84+,Single-ply,1998,University of Louisiana At Lafayette,LA,116,-177.5,177.5,180,180,97.5,110,120,120,-140,140,-160,140,440
10,F,Sarah Gourley,SBD,C,84+,Single-ply,1996,Pennsylvania State University,PA,84.6,-172.5,180,195,195,82.5,-90,-90,82.5,132.5,140,-145,140,417.5
11,F,Allison Villarreal,SBD,C,84+,Single-ply,1998,Sam Houston State University,TX,91.6,150,160,-165,160,92.5,102.5,-112.5,102.5,150,155,-160,155,417.5
12,F,Raven Nichols,SBD,C,84+,Single-ply,1996,Louisiana State University,LA,160.5,165,172.5,185,185,77.5,85,-90,85,120,130,135,135,405
13,F,MaKayla King,SBD,C,84+,Single-ply,1998,Louisiana Tech,LA,101.5,115,122.5,132.5,132.5,77.5,85,90,90,130,137.5,-147.5,137.5,360
14,F,Abby Coday,SBD,C,84+,Single-ply,1997,Midland University,NE,121.4,125,137.5,142.5,142.5,70,75,-77.5,75,135,142.5,-147.5,142.5,360
1,F,Priyanka Malhotra,SBD,R-C,43,Raw,1997,Rutgers University,NJ,42.3,65,67.5,70,70,32.5,35,-37.5,35,80,85,90,90,195
1,F,Emily Ho,SBD,R-C,47,Raw,1995,Rutgers University,NJ,46.1,110,115,120,120,55,57.5,62.5,62.5,112.5,115,125,125,307.5
2,F,Angelina Hong,SBD,R-C,47,Raw,1995,University of Houston,TX,46.4,77.5,85,90,90,80,85,-95,85,107.5,117.5,125,125,300
3,F,Avoree Villegas,SBD,R-C,47,Raw,1994,University of Texas at Austin,TX,45,97.5,102.5,-107.5,102.5,37.5,-40,-40,37.5,95,102.5,112.5,112.5,252.5
4,F,Thaonhi Cung,SBD,R-C,47,Raw,1995,University of Texas at Austin,TX,45.7,60,62.5,-70,62.5,30,-32.5,-32.5,30,72.5,82.5,90,90,182.5
5,F,Alisha Bhagwat,SBD,R-C,47,Raw,1997,Ohio State University,OH,45.7,40,45,47.5,47.5,30,-35,-35,30,70,75,-80,75,152.5
1,F,Allison Vick,SBD,R-C,52,Raw,1994,,WA,50.3,115,125,-130,125,62.5,67.5,-70,67.5,147.5,157.5,162.5,162.5,355
2,F,Yessi Altamirano,SBD,R-C,52,Raw,1996,University of Texas at Austin,TX,51.9,110,115,-117.5,115,57.5,-62.5,-62.5,57.5,145,152.5,-157.5,152.5,325
3,F,Caycee Bregel,SBD,R-C,52,Raw,1992,,MN,50.3,110,-115,-115,110,62.5,65,-70,65,137.5,140,142.5,142.5,317.5
4,F,Kayla Johnson,SBD,R-C,52,Raw,1995,,NC,51.6,107.5,115,117.5,117.5,67.5,70,72.5,72.5,117.5,122.5,-127.5,122.5,312.5
5,F,Jay'sun Moore,SBD,R-C,52,Raw,1996,University of Texas at Austin,TX,52,62.5,72.5,87.5,87.5,35,47.5,55,55,115,125,137.5,137.5,280
6,F,Nadya Valero,SBD,R-C,52,Raw,1998,,TX,51,100,-107.5,-107.5,100,47.5,-50,50,50,120,127.5,-132.5,127.5,277.5
7,F,Megan Parry,SBD,R-C,52,Raw,1994,Ohio State University,CA,49.7,-80,82.5,90,90,40,45,47.5,47.5,95,102.5,107.5,107.5,245
8,F,Katie Ruland,SBD,R-C,52,Raw,1995,University of Maryland,MD,51,70,77.5,-82.5,77.5,52.5,57.5,-60,57.5,97.5,-105,107.5,107.5,242.5
9,F,Elora Johnson,SBD,R-C,52,Raw,1995,University of North Texas,TX,51.6,65,-72.5,72.5,72.5,40,42.5,45,45,65,85,90,90,207.5
10,F,Yesenia Mejia,SBD,R-C,52,Raw,1996,,TX,51.7,65,70,77.5,77.5,32.5,37.5,-40,37.5,77.5,-80,-80,77.5,192.5
1,F,Melissa Hexter,SBD,R-C,57,Raw,1994,,MD,56,117.5,-125,125,125,80,85,88,88,130,137.5,142.5,142.5,355.5
2,F,Rachel Orbach,SBD,R-C,57,Raw,1993,Rutgers University,NJ,56.4,117.5,-122.5,122.5,122.5,65,67.5,70,70,150,155,-165,155,347.5
3,F,Caitlin Adams,SBD,R-C,57,Raw,1996,University of Maryland,MD,55.9,107.5,110,112.5,112.5,62.5,-67.5,67.5,67.5,137.5,145,152.5,152.5,332.5
4,F,Briannah Plasse,SBD,R-C,57,Raw,1997,University of Rhode Island,RI,54.9,95,105,110,110,52.5,57.5,60,60,-125,130,140,140,310
5,F,Zavina Gonzalez,SBD,R-C,57,Raw,1996,Texas A&M Kingsville,TX,56.7,110,117.5,-127.5,117.5,55,-62.5,-62.5,55,122.5,127.5,137.5,137.5,310
6,F,Natalie Carroll,SBD,R-C,57,Raw,1994,,VA,55.8,100,107.5,115,115,47.5,55,-57.5,55,110,125,-137.5,125,295
7,F,Kaitlyn Fratus,SBD,R-C,57,Raw,1993,University of Rhode Island,RI,56.9,110,120,-125,120,50,55,-57.5,55,117.5,-130,-130,117.5,292.5
8,F,Kelly Troutman,SBD,R-C,57,Raw,1997,University of Pittsburgh,MD,55.8,97.5,105,110,110,40,45,50,50,-107.5,110,120,120,280
9,F,Annette Yoon,SBD,R-C,57,Raw,1996,United States Military Academy,NY,55.5,92.5,95,97.5,97.5,60,62.5,-65,62.5,97.5,105,-110,105,265
10,F,Alexa Megaludis,SBD,R-C,57,Raw,1994,Pennsylvania State University,PA,55.9,90,95,-100,95,50,-55,-55,50,105,110,117.5,117.5,262.5
11,F,Julianna Sanchez,SBD,R-C,57,Raw,1994,University of Texas at Austin,TX,55.5,85,90,95,95,42.5,47.5,50,50,102.5,110,115,115,260
12,F,Jamie Taylor,SBD,R-C,57,Raw,1995,,TX,56.6,85,90,-97.5,90,45,47.5,50,50,107.5,115,120,120,260
13,F,Leslie Sierra,SBD,R-C,57,Raw,1997,Texas A&M Kingsville,TX,55.4,87.5,95,-100,95,-40,42.5,-52.5,42.5,92.5,100,110,110,247.5
14,F,Ashton Strange,SBD,R-C,57,Raw,1998,Tarleton State University,TX,54.5,-82.5,82.5,-105,82.5,40,45,-50,45,102.5,110,117.5,117.5,245
15,F,Lilly Fousti,SBD,R-C,57,Raw,1996,,GA,54.4,85,90,95,95,40,47.5,-52.5,47.5,82.5,90,97.5,97.5,240
16,F,Katie Malas,SBD,R-C,57,Raw,1997,Ohio State University,OH,55.9,75,80,85,85,45,47.5,-50,47.5,85,95,-102.5,95,227.5
17,F,Kaeleigh Novak,SBD,R-C,57,Raw,1996,Midland University,NE,56.5,62.5,-67.5,67.5,67.5,40,45,-47.5,45,95,100,105,105,217.5
18,F,Maily Ly,SBD,R-C,57,Raw,1995,,WA,53.1,62.5,70,-80,70,27.5,32.5,-37.5,32.5,90,-102.5,-102.5,90,192.5
DQ,F,Sarah Holloway,SBD,R-C,57,Raw,1995,University of North Texas,TX,55.9,-115,-115,-115,,,,,,130,,,130,
1,F,Lauren Center,SBD,R-C,63,Raw,1995,,TX,62.7,125,137.5,142.5,142.5,67.5,72.5,-77.5,72.5,170,182.5,-185.5,182.5,397.5
2,F,Megan Melendez,SBD,R-C,63,Raw,1996,Florida State University,FL,61.8,125,132.5,137.5,137.5,65,67.5,70,70,152.5,165,175,175,382.5
3,F,Brittany Chavez,SBD,R-C,63,Raw,1995,University of Maryland,MD,62.4,135,142.5,147.5,147.5,65,70,72.5,72.5,140,-152.5,162.5,162.5,382.5
4,F,Janelle Castillo,SBD,R-C,63,Raw,1998,Texas A&M Kingsville,TX,60.9,132.5,145,152.5,152.5,70,75,-77.5,75,135,145,152.5,152.5,380
5,F,Ashley Saunders,SBD,R-C,63,Raw,1996,University of Illinois at Chicago,IL,62.6,127.5,137.5,142.5,142.5,72.5,80,-82.5,80,142.5,150,157.5,157.5,380
6,F,Sheila Zare,SBD,R-C,63,Raw,1994,,TX,61.9,107.5,115,120,120,75,82.5,-85,82.5,147.5,155,167.5,167.5,370
7,F,Allison Mandell,SBD,R-C,63,Raw,1993,Rutgers University,NJ,60.6,135,140,-142.5,140,-77.5,80,-82.5,80,142.5,147.5,-155,147.5,367.5
8,F,Ashley DeShetler,SBD,R-C,63,Raw,1995,Ohio State University,OH,62.3,117.5,122.5,125,125,70,75,77.5,77.5,147.5,160,-167.5,160,362.5
9,F,Sydney Shade,SBD,R-C,63,Raw,1996,University of Maryland,PA,61.4,115,122.5,127.5,127.5,75,80,85,85,127.5,135,142.5,142.5,355
10,F,Cayti Neff,SBD,R-C,63,Raw,1996,,PA,62.5,112.5,120,-127.5,120,65,70,72.5,72.5,-142.5,147.5,157.5,157.5,350
11,F,Breanna Johnson,SBD,R-C,63,Raw,1996,,FL,61.6,97.5,105,115,115,77.5,82.5,-90,82.5,125,132.5,147.5,147.5,345
12,F,Emily Jebing,SBD,R-C,63,Raw,1996,,TX,61.7,117.5,125,-130,125,57.5,60,62.5,62.5,137.5,147.5,-152.5,147.5,335
13,F,Rui Tanimura,SBD,R-C,63,Raw,1996,University of Pittsburgh,MA,61,125,137.5,-140,137.5,52.5,60,62.5,62.5,125,-137.5,-137.5,125,325
14,F,Sarah Jones,SBD,R-C,63,Raw,1993,,VA,59,110,117.5,122.5,122.5,62.5,67.5,-70,67.5,115,120,127.5,127.5,317.5
15,F,Tiffany Raygor,SBD,R-C,63,Raw,1996,,GA,62,102.5,105,107.5,107.5,57.5,60,62.5,62.5,132.5,-137.5,137.5,137.5,307.5
16,F,Samantha Ledezma,SBD,R-C,63,Raw,1996,University of Texas at Austin,TX,62.9,117.5,125,-132.5,125,47.5,-50,-50,47.5,117.5,127.5,135,135,307.5
17,F,Jennifer Schmult,SBD,R-C,63,Raw,1996,Oklahoma State University,IL,61.2,107.5,115,-122.5,115,57.5,62.5,-72.5,62.5,110,-120,120,120,297.5
18,F,Shannon Shelby,SBD,R-C,63,Raw,1994,University of Texas at Austin,TX,61.1,97.5,102.5,107.5,107.5,-50,52.5,-60,52.5,117.5,125,135,135,295
19,F,Keara Hickey,SBD,R-C,63,Raw,1994,Pennsylvania State University,NY,60.7,97.5,105,110,110,47.5,52.5,-57.5,52.5,110,120,127.5,127.5,290
20,F,Emily Schmittle,SBD,R-C,63,Raw,1996,Pennsylvania State University,PA,62.1,97.5,105,110,110,55,60,62.5,62.5,110,115,-125,115,287.5
21,F,Brianna Maurer,SBD,R-C,63,Raw,1995,,WA,60.7,95,102.5,-110,102.5,47.5,52.5,-55,52.5,120,130,-140,130,285
22,F,Shannon Kudlawiec,SBD,R-C,63,Raw,1998,University of Pittsburgh,PA,62.7,100,107.5,110,110,50,55,-60,55,102.5,112.5,117.5,117.5,282.5
23,F,Alexandra Fuselier,SBD,R-C,63,Raw,1996,Tarleton State University,TX,62.9,100,107.5,-115,107.5,47.5,55,60,60,92.5,105,115,115,282.5
24,F,Christina Kasmer,SBD,R-C,63,Raw,1995,Pennsylvania State University,MD,61.6,87.5,95,100,100,47.5,52.5,55,55,107.5,115,122.5,122.5,277.5
25,F,Hailey Hankins,SBD,R-C,63,Raw,1998,University of North Texas,TX,58.5,75,82.5,92.5,92.5,47.5,52.5,-57.5,52.5,115,122.5,130,130,275
26,F,Erica Hoffman,SBD,R-C,63,Raw,1996,,PA,60.2,82.5,87.5,92.5,92.5,60,65,67.5,67.5,100,107.5,112.5,112.5,272.5
27,F,Valeri Natole,SBD,R-C,63,Raw,1998,University of Pittsburgh,NJ,60.9,85,92.5,97.5,97.5,45,50,-57.5,50,115,120,125,125,272.5
28,F,Brittany Snell,SBD,R-C,63,Raw,1997,Texas A&M Kingsville,TX,61.2,97.5,102.5,105,105,42.5,45,-50,45,107.5,112.5,117.5,117.5,267.5
29,F,Julia Hsu,SBD,R-C,63,Raw,1996,United States Military Academy,NY,60.5,77.5,-82.5,82.5,82.5,57.5,62.5,67.5,67.5,97.5,105,115,115,265
30,F,Sarah Holiday,SBD,R-C,63,Raw,1993,University of Houston,TX,61.1,70,75,82.5,82.5,40,42.5,-47.5,42.5,-120,120,127.5,127.5,252.5
31,F,Kevyn Robins,SBD,R-C,63,Raw,1997,Texas A&M Kingsville,TX,61.8,85,-90,90,90,42.5,45,47.5,47.5,85,90,-97.5,90,227.5
32,F,Diana Martinez,SBD,R-C,63,Raw,1996,Texas A&M Kingsville,TX,62.3,82.5,85,-92.5,85,42.5,45,50,50,87.5,92.5,-100,92.5,227.5
33,F,Rebecca Taylor,SBD,R-C,63,Raw,1995,University of Texas at Austin,TX,59.8,60,67.5,77.5,77.5,40,45,-50,45,75,87.5,100,100,222.5
34,F,Jasmine Sawaged,SBD,R-C,63,Raw,1997,Rutgers University,NJ,60.8,50,55,57.5,57.5,40,-42.5,-42.5,40,97.5,102.5,105,105,202.5
35,F,Kiara Ringgenberg,SBD,R-C,63,Raw,1997,University of Texas at Austin,TX,62.9,-55,55,-62.5,55,40,-45,-45,40,72.5,77.5,80,80,175
1,F,Alice Zheng,SBD,R-C,72,Raw,1992,,NJ,67.1,142.5,152.5,160,160,85,90.5,91,91,177.5,188,-194.5,188,439
2,F,Camiesha Jackson,SBD,R-C,72,Raw,1994,United States Military Academy,NY,70.8,120,130,142.5,142.5,72.5,77.5,-82.5,77.5,160,-175,177.5,177.5,397.5
3,F,Lindsey Raker,SBD,R-C,72,Raw,1995,McKendree University,IN,71.5,125,140,-142.5,140,77.5,-85,-85,77.5,165,175,-182.5,175,392.5
4,F,Hannah Kleman,SBD,R-C,72,Raw,1994,Ohio State University,OH,67.7,110,117.5,122.5,122.5,75,80,82.5,82.5,165,175,-177.5,175,380
5,F,Veronica Viar,SBD,R-C,72,Raw,1993,,CA,71.4,130,140,147.5,147.5,60,62.5,-67.5,62.5,145,155,-162.5,155,365
6,F,Camille Chow,SBD,R-C,72,Raw,1995,Rutgers University,NJ,68.4,122.5,130,-140,130,52.5,57.5,60,60,160,165,172.5,172.5,362.5
7,F,Hope McAfee,SBD,R-C,72,Raw,1995,University of North Texas,TX,66.9,122.5,130,140,140,57.5,60,-65,60,132.5,145,150,150,350
8,F,Mary Catherine Innace,SBD,R-C,72,Raw,1995,Rutgers University,NJ,69.6,110,115,117.5,117.5,87.5,-90,-90,87.5,130,137.5,142.5,142.5,347.5
9,F,Jazlyn Cruz,SBD,R-C,72,Raw,1997,Rutgers University,NJ,70.7,115,120,125,125,72.5,75,-77.5,75,140,145,147.5,147.5,347.5
10,F,Rosalie Hutson,SBD,R-C,72,Raw,1995,Pennsylvania State University,PA,66.7,125,135,140,140,60,65,-67.5,65,140,-147.5,-147.5,140,345
11,F,Nichole Weinsheimer,SBD,R-C,72,Raw,1995,,NY,70.5,115,120,125,125,57.5,62.5,-65,62.5,127.5,137.5,147.5,147.5,335
12,F,Carle Straube,SBD,R-C,72,Raw,1998,Texas A&M Kingsville,TX,63.8,112.5,120,125,125,52.5,55,-57.5,55,130,142.5,-155,142.5,322.5
13,F,Catherine Robertson,SBD,R-C,72,Raw,1995,University of Texas at Austin,TX,67.8,107.5,-115,115,115,57.5,62.5,65,65,132.5,137.5,142.5,142.5,322.5
14,F,Corbin Mauro,SBD,R-C,72,Raw,1994,Ohio State University,OH,71.9,110,120,125,125,57.5,62.5,-67.5,62.5,117.5,125,135,135,322.5
15,F,Neale Snyder,SBD,R-C,72,Raw,1994,Ohio State University,OR,69.6,105,110,115,115,67.5,70,-72.5,70,130,-137.5,-137.5,130,315
16,F,Divani Espinoza,SBD,R-C,72,Raw,1995,University of Texas at Austin,TX,71.6,117.5,125,127.5,127.5,52.5,-57.5,-57.5,52.5,-117.5,122.5,130,130,310
17,F,Sarah Hertzler,SBD,R-C,72,Raw,1997,University of Pittsburgh,PA,68.9,100,107.5,117.5,117.5,42.5,47.5,52.5,52.5,102.5,115,132.5,132.5,302.5
18,F,Allison Voll,SBD,R-C,72,Raw,1995,United States Military Academy,NY,69.8,92.5,100,-107.5,100,62.5,65,67.5,67.5,120,127.5,-137.5,127.5,295
19,F,Shelley Zhao,SBD,R-C,72,Raw,1995,,NJ,66.1,85,92.5,97.5,97.5,50,-55,-55,50,137.5,-145,-145,137.5,285
20,F,April Botello,SBD,R-C,72,Raw,1998,,TX,69.6,-100,102.5,112.5,112.5,55,60,62.5,62.5,105,110,-120,110,285
21,F,Kerlie Richemond,SBD,R-C,72,Raw,1998,McKendree University,FL,70.6,87.5,95,97.5,97.5,65,70,75,75,-102.5,105,112.5,112.5,285
22,F,Nikka Bianca De Leon,SBD,R-C,72,Raw,1995,Pennsylvania State University,PA,64.2,-95,95,-100,95,52.5,55,57.5,57.5,112.5,120,127.5,127.5,280
23,F,Haley Hershey,SBD,R-C,72,Raw,1997,University of Maryland,MD,64.4,90,97.5,-102.5,97.5,55,57.5,62.5,62.5,107.5,-112.5,117.5,117.5,277.5
24,F,Gabby Seymour,SBD,R-C,72,Raw,1997,,NJ,69.2,90,95,97.5,97.5,47.5,50,52.5,52.5,110,117.5,125,125,275
25,F,Jerica Bornstein,SBD,R-C,72,Raw,1993,University of Texas at Austin,TX,69.5,90,97.5,-102.5,97.5,42.5,47.5,-50,47.5,110,117.5,122.5,122.5,267.5
26,F,Kaitlyn Nash,SBD,R-C,72,Raw,1995,Pennsylvania State University,NJ,68.8,70,77.5,82.5,82.5,50,55,-57.5,55,95,107.5,115,115,252.5
27,F,Rebecca Semanski,SBD,R-C,72,Raw,1994,University of Rhode Island,NJ,65.2,57.5,65,75,75,30,37.5,-45,37.5,95,105,115,115,227.5
28,F,Abigail Ruths,SBD,R-C,72,Raw,1994,Pennsylvania State University,PA,69.3,65,70,75,75,32.5,-37.5,-37.5,32.5,102.5,110,-117.5,110,217.5
29,F,Meghan Bowling,SB,R-C,72,Raw,1997,Louisiana Tech,TX,70.5,65,,,65,-87.5,87.5,-91,87.5,,,,,152.5
1,F,Brittney Barksdale,SBD,R-C,84,Raw,1996,,TX,77,142.5,152.5,162.5,162.5,77.5,85,92.5,92.5,167.5,-177.5,-177.5,167.5,422.5
2,F,Katherine Ducotey,SBD,R-C,84,Raw,1995,Texas A&M Kingsville,TX,80.6,142.5,155,162.5,162.5,90,96.5,-97.5,96.5,142.5,155,162.5,162.5,421.5
3,F,Hannah Bryan,SBD,R-C,84,Raw,1996,Oklahoma State University,OK,81.1,152.5,155,-162.5,155,80,87.5,-90,87.5,157.5,167.5,-182.5,167.5,410
4,F,Megan Bigelow,SBD,R-C,84,Raw,1996,Pennsylvania State University,PA,78.7,130,137.5,142.5,142.5,75,85,-90,85,130,142.5,162.5,162.5,390
5,F,Maria Rojas,SBD,R-C,84,Raw,1997,Pennsylvania State University,PA,74,127.5,135,140,140,72.5,75,77.5,77.5,152.5,165,170,170,387.5
6,F,Sarah Ferrell,SBD,R-C,84,Raw,1994,University of Maryland,MD,82.6,120,127.5,135,135,60,65,-70,65,140,150,157.5,157.5,357.5
7,F,Olivia Toth,SBD,R-C,84,Raw,1997,McKendree University,NH,79.6,107.5,115,-117.5,115,75,80,-82.5,80,142.5,150,155,155,350
8,F,Emma Gehring,SBD,R-C,84,Raw,1997,University of Wisconsin River Falls,WI,83,140,-150,-150,140,57.5,62.5,-67.5,62.5,140,142.5,-147.5,142.5,345
9,F,Brooke Conley,SBD,R-C,84,Raw,1997,Ohio State University,OH,81.3,112.5,120,127.5,127.5,60,65,-70,65,130,137.5,145,145,337.5
10,F,Madison Price,SBD,R-C,84,Raw,1995,Texas A&M Kingsville,TX,82.7,102.5,107.5,112.5,112.5,-65,65,-67.5,65,137.5,145,152.5,152.5,330
11,F,Izzy Greenblatt,SBD,R-C,84,Raw,1996,Ohio State University,OH,80.4,112.5,-120,120,120,55,-60,-60,55,142.5,147.5,152.5,152.5,327.5
12,F,Ashley Hanna,SBD,R-C,84,Raw,1996,,GA,77.5,90,97.5,105,105,60,-65,67.5,67.5,125,135,140,140,312.5
13,F,Eileen Butler,SBD,R-C,84,Raw,1995,Northeastern University,PA,75.9,102.5,112.5,120,120,50,55,-57.5,55,120,127.5,135,135,310
14,F,Carla Newman,SBD,R-C,84,Raw,1995,Pennsylvania State University,PA,80.5,-107.5,107.5,115,115,50,-55,-55,50,117.5,127.5,137.5,137.5,302.5
15,F,Casey Carr,SBD,R-C,84,Raw,1996,Pennsylvania State University,PA,81.1,102.5,112.5,-120,112.5,50,52.5,55,55,120,127.5,-132.5,127.5,295
16,F,Megan Hower,SBD,R-C,84,Raw,1996,Pennsylvania State University,PA,76.1,90,95,-97.5,95,47.5,50,-52.5,50,120,127.5,132.5,132.5,277.5
17,F,Victoria Brown,SBD,R-C,84,Raw,1996,Texas A&M Kingsville,TX,79,82.5,90,97.5,97.5,50,-55,55,55,102.5,110,117.5,117.5,270
DQ,F,Katie Biddle,SBD,R-C,84,Raw,1993,United States Military Academy,IN,74.7,-102.5,102.5,-105,102.5,-57.5,-57.5,-57.5,,52.5,60,67.5,67.5,
1,F,Heidi Lewis,SBD,R-C,84+,Raw,1997,Ohio State University,OH,87.4,-135,135,145,145,75,80,85,85,165,175,177.5,177.5,407.5
2,F,Melissa Reyes,SBD,R-C,84+,Raw,1998,University of Texas at San Antonio,TX,91.5,142.5,155,162.5,162.5,67.5,72.5,75,75,147.5,160,170,170,407.5
3,F,Abbie Leschinsky,SBD,R-C,84+,Raw,1997,University of Nebraska Lincoln,NE,88.4,137.5,140,142.5,142.5,80,87.5,-92.5,87.5,155,162.5,-167.5,162.5,392.5
4,F,Kiana Hendricks,SBD,R-C,84+,Raw,1995,,CO,96.9,130,137.5,145,145,70,75,-80,75,150,160,167.5,167.5,387.5
5,F,Karissa Murphy,SBD,R-C,84+,Raw,1995,University of Maryland,MD,92.1,125,132.5,137.5,137.5,67.5,72.5,75,75,140,152.5,160,160,372.5
6,F,Dani Jones,SBD,R-C,84+,Raw,1994,Ohio State University,OH,84.3,117.5,122.5,130,130,62.5,67.5,72.5,72.5,142.5,150,157.5,157.5,360
7,F,Victoria Reyna,SBD,R-C,84+,Raw,1996,,TX,89.1,107.5,117.5,125,125,57.5,62.5,-65,62.5,122.5,137.5,-152.5,137.5,325
8,F,Karlysa Pierce,SBD,R-C,84+,Raw,1998,Tarleton State University,TX,108,-97.5,112.5,122.5,122.5,57.5,-65,-65,57.5,110,130,140,140,320
9,F,Julia Devinney,SBD,R-C,84+,Raw,1995,Texas A&M Kingsville,TX,103.8,95,100,105,105,50,57.5,-60,57.5,112.5,115,-120,115,277.5
10,F,Taylor Mauk,SBD,R-C,84+,Raw,1998,Pennsylvania State University,PA,101.2,82.5,90,95,95,42.5,45,-47.5,45,125,-135,-135,125,265
11,F,Georgina Snyder,SBD,R-C,84+,Raw,1996,Pennsylvania State University,PA,102.6,87.5,92.5,97.5,97.5,42.5,-45,-45,42.5,95,102.5,-110,102.5,242.5
DQ,F,Tieara Troy,SBD,R-C,84+,Raw,1996,Tarleton State University,TX,88.8,87.5,92.5,-102.5,92.5,-65,-67.5,-67.5,,,,,,
1,M,Nickolas Gordon,SBD,C,53,Single-ply,1997,Louisiana State University,LA,52.2,-182.5,182.5,192.5,192.5,117.5,125,-132.5,125,160,-170,,160,477.5
2,M,Andy Bui,SBD,C,53,Single-ply,1997,University of Louisiana At Lafayette,LA,52,145,150,-155,150,90,95,100,100,165,-177.5,177.5,177.5,427.5
DQ,M,Connor Gruntz,SBD,C,53,Single-ply,1996,Louisiana Tech,LA,52.2,142.5,-165,-165,142.5,-97.5,-97.5,-97.5,,135,147.5,-150,147.5,
DQ,M,Dalton LaCoe,SBD,C,53,Single-ply,1995,,PA,52.8,200,207.5,212.5,212.5,120,127.5,-132.5,127.5,-247.5,-247.5,-247.5,,
1,M,Josue Leon,SBD,C,59,Single-ply,1993,Louisiana Tech,TX,59,-215,215,-220,215,130,135,140,140,240,247.5,-252.5,247.5,602.5
2,M,Logan Grimm,SBD,C,59,Single-ply,1997,Texas A&M Kingsville,TX,58.9,232.5,243,248,248,115,-120,-120,115,227.5,235,-237.5,235,598
3,M,Davion Aldridge,SBD,C,59,Single-ply,1998,University of Texas at San Antonio,TX,58.5,-217.5,-217.5,217.5,217.5,-130,130,140,140,-227.5,227.5,-242.5,227.5,585
4,M,Michael Ebanks,SBD,C,59,Single-ply,1995,University of Louisiana At Lafayette,LA,58.4,207.5,212.5,-220,212.5,115,120,122.5,122.5,220,-225,-232.5,220,555
5,M,Hector Bustillos,SBD,C,59,Single-ply,1996,University of Texas at Austin,TX,58.6,185,195,205,205,107.5,115,122.5,122.5,215,227.5,-237.5,227.5,555
6,M,Arnold Delgadillo,SBD,C,59,Single-ply,1997,Texas A&M Kingsville,TX,58.6,192.5,-200,-200,192.5,145,-152.5,-152.5,145,-210,-210,210,210,547.5
7,M,Jesus Rios,SBD,C,59,Single-ply,1997,University of Houston - Downtown,TX,57,152.5,-165,182.5,182.5,125,132.5,140,140,182.5,200,-205,200,522.5
8,M,Anthony Montes,SBD,C,59,Single-ply,1997,University of Texas at Austin,TX,58.5,165,175,182.5,182.5,105,-112.5,-112.5,105,180,190,197.5,197.5,485
9,M,Patrick Shamma,SBD,C,59,Single-ply,1995,Louisiana State University,LA,58.7,-165,170,175,175,77.5,-92.5,92.5,92.5,185,202.5,-210,202.5,470
10,M,Noel Ybarra,SBD,C,59,Single-ply,1998,University of Texas at Austin,TX,57.5,-160,160,172.5,172.5,82.5,90,-97.5,90,160,170,180,180,442.5
DQ,M,Eric Hernandez,SBD,C,59,Single-ply,1996,Texas A&M Kingsville,TX,58.2,175,-182.5,182.5,182.5,95,97.5,102.5,102.5,-210,-210,-210,,
DQ,M,Joseph Kelley,SBD,C,59,Single-ply,1997,University of Houston - Downtown,TX,58.3,-210,-215,-215,,-135,-135,-135,,-210,,,,
DQ,M,Daniel Baez,SBD,C,59,Single-ply,1998,University of Rhode Island,NJ,58.5,-165,-165,-165,,107.5,112.5,117.5,117.5,157.5,172.5,-182.5,172.5,
1,M,Charles Okpoko,SBD,C,66,Single-ply,1995,University of Texas at Austin,TX,65.4,287.5,302.5,317.5,317.5,-185,185,,185,205,215,,215,717.5
2,M,Jerry Alaniz,SBD,C,66,Single-ply,1995,University of Texas at San Antonio,TX,65.1,245,-260,275,275,175,185,-187.5,185,227.5,232.5,242.5,242.5,702.5
3,M,Kenny Nguyen,SBD,C,66,Single-ply,1995,University of Houston - Downtown,TX,65.2,230,242.5,-250,242.5,220,230,-240,230,-220,220,-235,220,692.5
4,M,Jess Rutledge,SBD,C,66,Single-ply,1994,University of Texas at San Antonio,TX,65.2,237.5,250,-257.5,250,135,142.5,-147.5,142.5,215,-227.5,-227.5,215,607.5
5,M,Brandon Canson,SBD,C,66,Single-ply,1995,University of Texas at Austin,TX,65.4,210,222.5,-235,222.5,-132.5,132.5,-137.5,132.5,235,240,-255,240,595
6,M,Blake Ricalde,SBD,C,66,Single-ply,1994,Louisiana State University,LA,65.5,227.5,-237.5,-237.5,227.5,137.5,140,-145,140,212.5,-222.5,-222.5,212.5,580
7,M,Roland Whitney,SBD,C,66,Single-ply,1997,University of Louisiana At Lafayette,LA,64.9,197.5,-202.5,202.5,202.5,-162.5,162.5,170,170,200,-207.5,-217.5,200,572.5
8,M,Jerrell Howell,SBD,C,66,Single-ply,1994,Mississippi State University,MS,65.6,215,-230,237.5,237.5,120,-137.5,-137.5,120,215,-227.5,-227.5,215,572.5
9,M,Joseph Axtell,SBD,C,66,Single-ply,1998,Louisiana Tech,TX,65.6,220,230,242.5,242.5,115,122.5,-127.5,122.5,202.5,-207.5,-207.5,202.5,567.5
10,M,Vincent Moon,SBD,C,66,Single-ply,1994,United States Naval Academy,MD,65.7,200,207.5,-210,207.5,150,157.5,-170,157.5,170,185,192.5,192.5,557.5
11,M,Justin Lovelace,SBD,C,66,Single-ply,1998,Texas A&M Kingsville,TX,65.1,200,207.5,-220,207.5,115,120,127.5,127.5,197.5,210,217.5,217.5,552.5
12,M,Grayson Brown,SBD,C,66,Single-ply,1997,University of Texas at San Antonio,TX,64.3,217.5,-220,220,220,120,-125,-125,120,195,202.5,-212.5,202.5,542.5
13,M,Edward Su,SBD,C,66,Single-ply,1995,University of Texas at Austin,TX,65.8,160,170,180,180,110,120,127.5,127.5,200,212.5,225,225,532.5
14,M,Michael Hurst,SBD,C,66,Single-ply,1995,University of Louisiana At Lafayette,LA,65.5,175,187.5,202.5,202.5,127.5,135,-140,135,175,-182.5,187.5,187.5,525
15,M,Jacob Keesee,SBD,C,66,Single-ply,1995,,GA,63.8,-192.5,192.5,-200,192.5,107.5,117.5,125,125,165,,,165,482.5
16,M,Anthony Polo,SBD,C,66,Single-ply,1998,United States Naval Academy,MD,65.5,160,170,177.5,177.5,-105,-105,105,105,180,190,-195,190,472.5
DQ,M,Quinton Gabara,SBD,C,66,Single-ply,1997,Northeastern University,MA,63,-225,-225,-225,,135,-145,-145,135,202.5,207.5,-215,207.5,
1,M,Stephen Lehew,SBD,C,74,Single-ply,1995,Texas A&M Kingsville,TX,73.7,290,300,,300,215,-227.5,,215,285,305,-318,305,820
2,M,Henry Hsu,SBD,C,74,Single-ply,1994,Northeastern University,MA,72.6,265,277.5,290,290,155,162.5,172.5,172.5,-255,255,-272.5,255,717.5
3,M,Samuel Kopech,SBD,C,74,Single-ply,1996,University of Rhode Island,RI,72.6,235,247.5,-255,247.5,142.5,147.5,152.5,152.5,230,240,247.5,247.5,647.5
4,M,DeQuinton Gie,SBD,C,74,Single-ply,1997,Louisiana Tech,LA,72,255,265,-272.5,265,137.5,147.5,155,155,225,-235,-235,225,645
5,M,Scott Reviere,SBD,C,74,Single-ply,1996,University of Louisiana At Lafayette,LA,72.5,240,245,252.5,252.5,147.5,152.5,157.5,157.5,232.5,235,-245,235,645
6,M,Daniel Hernandez,SBD,C,74,Single-ply,1998,Texas A&M Kingsville,TX,73.2,245,257.5,272.5,272.5,120,127.5,-130,127.5,-237.5,237.5,-242.5,237.5,637.5
7,M,Kevin Cole,SBD,C,74,Single-ply,1995,Northeastern University,CT,72.2,240,-250,-250,240,150,-155,-155,150,210,225,235,235,625
8,M,Lorenzo Sanchez,SBD,C,74,Single-ply,1997,University of Texas at San Antonio,TX,67.3,227.5,242.5,-250,242.5,-135,135,-145,135,222.5,-240,-240,222.5,600
9,M,Jason Poling,SBD,C,74,Single-ply,1995,Virginia Military Institute,VA,73.4,217.5,227.5,-240,227.5,-140,-140,140,140,212.5,220,227.5,227.5,595
10,M,Deon Odom,SBD,C,74,Single-ply,1998,United States Naval Academy,MD,73.4,202.5,220,227.5,227.5,130,-142.5,-142.5,130,212.5,225,-235,225,582.5
11,M,Matthew Zwiren,SBD,C,74,Single-ply,1995,Virginia Military Institute,VA,71.9,195,205,-215,205,145,-155,155,155,195,207.5,-215,207.5,567.5
12,M,Bobby Teel,SBD,C,74,Single-ply,1996,University of Wisconsin Milwaukee,WI,72.5,207.5,220,232.5,232.5,97.5,110,-122.5,110,195,205,217.5,217.5,560
13,M,Lane Hudspeth,SBD,C,74,Single-ply,1960,Louisiana State University,LA,70,197.5,207.5,-220,207.5,130,135,-142.5,135,190,197.5,212.5,212.5,555
14,M,Josh Hester,SBD,C,74,Single-ply,1995,Mississippi State University,MS,72,160,182.5,202.5,202.5,105,117.5,125,125,215,227.5,-245,227.5,555
15,M,Nicholas DeSantis,SBD,C,74,Single-ply,1993,Northeastern University,MA,72.2,205,-215,217.5,217.5,105,110,-112.5,110,210,220,227.5,227.5,555
16,M,Jordan Gonyea,SBD,C,74,Single-ply,1997,United States Naval Academy,MD,70.7,-185,195,-207.5,195,107.5,112.5,117.5,117.5,212.5,220,227.5,227.5,540
DQ,M,Connor Loskie,SBD,C,74,Single-ply,1994,Texas A&M Kingsville,TX,72.2,207.5,217.5,227.5,227.5,-170,-170,-170,,207.5,217.5,225,225,
DQ,M,Anthony Carrillo,SBD,C,74,Single-ply,1996,United States Naval Academy,MD,72.8,195,212.5,230,230,-130,-130,-142.5,,207.5,220,-227.5,220,
DQ,M,Angel Moreno,SBD,C,74,Single-ply,1996,University of Texas at San Antonio,TX,73.3,-295,295,-302.5,295,-205,-205,-205,,245,257.5,,257.5,
DQ,M,Timothy Thibodeaux,SBD,C,74,Single-ply,1997,Louisiana State University,TX,73.6,-225,225,,225,-152.5,-152.5,-152.5,,,,,,
1,M,Aaron Pomerantz,SBD,C,83,Single-ply,1995,University of Texas at Austin,TX,81.5,255,267.5,282.5,282.5,260,280,300,300,242.5,250,-257.5,250,832.5
2,M,Raynard Taylor,SBD,C,83,Single-ply,1997,University of Texas at San Antonio,TX,82.7,310,-320,325,325,187.5,,,187.5,290,-305,-305,290,802.5
3,M,Anthony White,SBD,C,83,Single-ply,1992,United States Naval Academy,MD,80.1,260,270,275,275,210,220,-230,220,255,265,285,285,780
4,M,James Guillory,SBD,C,83,Single-ply,1994,University of Louisiana At Lafayette,LA,82.7,260,275,280,280,232.5,237.5,242.5,242.5,240,250,257.5,257.5,780
5,M,Yuuki Sato,SBD,C,83,Single-ply,1994,Northeastern University,MA,82.5,290,302.5,-310,302.5,177.5,187.5,192.5,192.5,265,277.5,-287.5,277.5,772.5
6,M,Jared Naquin,SBD,C,83,Single-ply,1994,University of Louisiana At Lafayette,LA,81.8,250,262.5,265,265,177.5,187.5,197.5,197.5,275,290,-300,290,752.5
7,M,Brandon Gillen,SBD,C,83,Single-ply,1998,Texas A&M Kingsville,TX,82.1,275,287.5,-300,287.5,187.5,-192.5,192.5,192.5,250,-257.5,-257.5,250,730
8,M,Mauricio Valdez,SBD,C,83,Single-ply,1994,University of Texas at San Antonio,TX,83,255,267.5,272.5,272.5,170,175,182.5,182.5,245,-257.5,257.5,257.5,712.5
9,M,Jackson Baker,SBD,C,83,Single-ply,1995,United States Naval Academy,NJ,80.7,-252.5,252.5,-267.5,252.5,147.5,160,165,165,282.5,-297.5,-302.5,282.5,700
10,M,Everado Araujo,SBD,C,83,Single-ply,1997,University of Texas at Austin,TX,82.5,250,262.5,-280,262.5,145,152.5,157.5,157.5,240,255,265,265,685
11,M,Josh Williams,SBD,C,83,Single-ply,1995,,TX,82.2,255,280,290,290,152.5,165,-175,165,215,227.5,-235,227.5,682.5
12,M,Nicholas Scannell,SBD,C,83,Single-ply,1996,University of Wisconsin Milwaukee,WI,81.8,220,232.5,245,245,142.5,150,155,155,255,265,-275,265,665
13,M,Khang Huynh,SBD,C,83,Single-ply,1995,Louisiana State University,LA,81.4,232.5,235,240,240,152.5,160,165,165,-230,230,245,245,650
14,M,Corderrius Wallace,SBD,C,83,Single-ply,1997,Texas A&M Kingsville,TX,82.1,227.5,-240,240,240,-152.5,-155,155,155,-227.5,237.5,245,245,640
15,M,Jamil Hinedi,SBD,C,83,Single-ply,1995,Texas A&M Kingsville,TX,82.4,215,-225,230,230,155,160,167.5,167.5,225,237.5,-245,237.5,635
16,M,Jilani Austin,SBD,C,83,Single-ply,1998,University of Houston,TX,79.2,215,225,235,235,-150,150,157.5,157.5,207.5,217.5,227.5,227.5,620
17,M,Dong-Won Lee,SBD,C,83,Single-ply,1994,United States Naval Academy,MD,82.3,-210,220,-230,220,140,145,152.5,152.5,220,235,245,245,617.5
18,M,Nicholas Fresneda,SBD,C,83,Single-ply,1997,Northeastern University,LA,81.6,232.5,-242.5,-242.5,232.5,155,165,-172.5,165,180,205,215,215,612.5
19,M,Eli Carlson,SBD,C,83,Single-ply,1996,United States Naval Academy,MD,81,212.5,225,-235,225,132.5,-145,145,145,215,-225,225,225,595
20,M,Jonathan Lin,SBD,C,83,Single-ply,1994,Louisiana State University,LA,81.6,227.5,-237.5,-237.5,227.5,152.5,155,-160,155,200,205,-210,205,587.5
21,M,Mitchell Hlava,SBD,C,83,Single-ply,1995,University of Wisconsin Milwaukee,WI,81.8,197.5,210,217.5,217.5,117.5,-127.5,132.5,132.5,215,225,232.5,232.5,582.5
22,M,Bobby Vidal,SBD,C,83,Single-ply,1996,University of Houston,TX,83,-200,200,220,220,150,155,-167.5,155,207.5,-217.5,-222.5,207.5,582.5
23,M,Devin Kumar,SBD,C,83,Single-ply,1997,University of Texas at Austin,TX,82,215,222.5,-227.5,222.5,-125,125,132.5,132.5,215,-227.5,-227.5,215,570
24,M,Sergio Cruz,SBD,C,83,Single-ply,1994,United States Naval Academy,MD,82.9,-202.5,212.5,-220,212.5,125,132.5,-142.5,132.5,210,220,-227.5,220,565
25,M,Anas Abou Allaban,SBD,C,83,Single-ply,1997,Northeastern University,MA,74.7,210,220,230,230,117.5,122.5,-127.5,122.5,185,200,205,205,557.5
26,M,Parker Sharp,SBD,C,83,Single-ply,1995,United States Naval Academy,UT,77.3,172.5,-185,192.5,192.5,132.5,152.5,-162.5,152.5,180,202.5,-215,202.5,547.5
27,M,Thomas Gottschalk,S,C,83,Single-ply,1994,University of Rhode Island,CT,82.2,270,282.5,-290,282.5,,,,,,,,,282.5
DQ,M,Matthew Boyle,SBD,C,83,Single-ply,1998,,MA,80.7,225,237.5,245,245,-155,-155,-155,,225,237.5,-252.5,237.5,
DQ,M,Jonathan Voltaire,SBD,C,83,Single-ply,1995,Texas A&M Kingsville,TX,81.3,-300,-300,-300,,170,175,182.5,182.5,300,307.5,-320,307.5,
DQ,M,Christopher Eason,SBD,C,83,Single-ply,1994,Texas A&M Kingsville,TX,82.4,-207.5,-207.5,-207.5,,137.5,142.5,-152.5,142.5,205,-220,-227.5,205,
1,M,Ashton Rouska,SBD,C,93,Single-ply,1997,University of Texas at San Antonio,TX,89.8,332.5,-347.5,350,350,215,-222.5,-222.5,215,325,335,-350,335,900
2,M,Abram Guerra,SBD,C,93,Single-ply,1995,Texas A&M Kingsville,TX,92.6,317.5,335,345,345,250.5,255,-260,255,285,295,-305,295,895
3,M,Benjamin Nevares,SBD,C,93,Single-ply,1996,Texas A&M Kingsville,TX,91.7,310,317.5,-322.5,317.5,242.5,-250,-250,242.5,-312.5,312.5,-335,312.5,872.5
4,M,Carlos Lucio,SBD,C,93,Single-ply,1995,Sam Houston State University,TX,90.4,317.5,-327.5,-327.5,317.5,220,-230,230,230,265,277.5,-287.5,277.5,825
5,M,Luis Guzman,SBD,C,93,Single-ply,1995,University of Houston,TX,92.7,280,292.5,300,300,192.5,197.5,-200,197.5,-265,265,282.5,282.5,780
6,M,Alexander Harbeson,SBD,C,93,Single-ply,1992,United States Naval Academy,MD,92.5,257.5,272.5,285,285,192.5,207.5,-215,207.5,-282.5,282.5,-290,282.5,775
7,M,Keaton Rodriguez,SBD,C,93,Single-ply,1995,Louisiana Tech,LA,92,285,295,300,300,177.5,-182.5,182.5,182.5,-280,280,287.5,287.5,770
8,M,Carter Burn,SBD,C,93,Single-ply,1996,United States Naval Academy,MD,91.6,252.5,267.5,277.5,277.5,175,-182.5,182.5,182.5,272.5,287.5,-305,287.5,747.5
9,M,Ethan Durham,SBD,C,93,Single-ply,1995,United States Naval Academy,MD,91.7,-265,272.5,282.5,282.5,170,182.5,190,190,-242.5,242.5,265,265,737.5
10,M,Christopher Broussard,SBD,C,93,Single-ply,1996,University of Louisiana At Lafayette,LA,91.7,257.5,275,-290,275,-160,167.5,172.5,172.5,250,260,-265,260,707.5
11,M,Kyle Brennan,SBD,C,93,Single-ply,1997,Sam Houston State University,TX,92.5,257.5,-270,-270,257.5,160,-165,165,165,252.5,262.5,-272.5,262.5,685
12,M,Steve Medrano,SBD,C,93,Single-ply,1998,,TX,88.5,252.5,265,275,275,155,162.5,-170,162.5,220,232.5,245,245,682.5
13,M,John Goodyear,SBD,C,93,Single-ply,1995,Northeastern University,NJ,90,240,252.5,260,260,160,172.5,182.5,182.5,210,230,240,240,682.5
14,M,Nicholas Mccauley,SBD,C,93,Single-ply,1995,Northeastern University,MA,87.2,250,260,272.5,272.5,110,160,-165,160,220,240,-250,240,672.5
15,M,Benjamin Hogin,SBD,C,93,Single-ply,1996,United States Naval Academy,MD,91.6,-225,-232.5,232.5,232.5,152.5,167.5,180,180,230,245,-262.5,245,657.5
16,M,Xiang-Ting Fu,SBD,C,93,Single-ply,1995,University of Texas at Austin,TX,88.4,230,247.5,-260,247.5,132.5,140,145,145,262.5,-277.5,-277.5,262.5,655
17,M,Phillip Wilson,SBD,C,93,Single-ply,1998,,TX,87.2,237.5,-247.5,-252.5,237.5,160,-170,-170,160,217.5,230,235,235,632.5
18,M,Daniel Fisher,SBD,C,93,Single-ply,1996,Northeastern University,NJ,84.3,240,-255,-255,240,145,152.5,160,160,200,215,227.5,227.5,627.5
19,M,Morgan Menaker,SBD,C,93,Single-ply,1995,Virginia Military Institute,NC,90.1,225,240,-265,240,140,-150,-150,140,240,-260,-272.5,240,620
20,M,Farhan Siddiqui,SBD,C,93,Single-ply,1993,Texas A&M Kingsville,TX,90.2,225,235,242.5,242.5,117.5,122.5,-127.5,122.5,235,250,-260,250,615
21,M,Eric Kim,SBD,C,93,Single-ply,1994,Northeastern University,MA,85.1,-240,-240,240,240,150,160,-165,160,190,212.5,-230,212.5,612.5
22,M,Steven Zhou,SBD,C,93,Single-ply,1996,Northeastern University,MA,89.7,225,235,240,240,-125,125,132.5,132.5,220,240,-250,240,612.5
23,M,Patrick Morgan,SBD,C,93,Single-ply,1994,University of Rhode Island,MA,90.6,-210,210,220,220,115,120,125,125,222.5,230,,230,575
24,M,Anthony Ramadei,SBD,C,93,Single-ply,1996,Northeastern University,MA,92.6,-190,190,202.5,202.5,-140,140,150,150,192.5,202.5,-210,202.5,555
25,M,Cole Bailey,SBD,C,93,Single-ply,1997,Mississippi State University,MS,89,-180,192.5,207.5,207.5,125,-135,-135,125,190,-220,-220,190,522.5
DQ,M,Khalid Schuler,SBD,C,93,Single-ply,1996,University of Texas at San Antonio,TX,92.2,-340,-340,-340,,,,,,,,,,
1,M,Mitchell Fountain,SBD,C,105,Single-ply,1995,Louisiana State University,LA,101.4,350,365.5,-372.5,365.5,237.5,247.5,252.5,252.5,335,-360.5,-360.5,335,953
2,M,Michael Davis,SBD,C,105,Single-ply,1995,University of Texas at Austin,WA,102.4,332.5,347.5,355,355,230,237.5,-242.5,237.5,317.5,332.5,345,345,937.5
3,M,Trey Ryder,SBD,C,105,Single-ply,1996,University of Louisiana At Lafayette,LA,104,295,310,325,325,217.5,232.5,245,245,247.5,257.5,267.5,267.5,837.5
4,M,Richard Peña Jr,SBD,C,105,Single-ply,1994,University of Texas at San Antonio,TX,96,302.5,-307.5,-307.5,302.5,210,230,242.5,242.5,250,-260,-267.5,250,795
5,M,Jonah Noeldner,SBD,C,105,Single-ply,1995,United States Air Force Academy,CO,103.1,272.5,295,302.5,302.5,182.5,192.5,205,205,272.5,280,287.5,287.5,795
6,M,Caleb Lamberth,SBD,C,105,Single-ply,1996,University of Texas at San Antonio,TX,93.7,287.5,295,305,305,180,187.5,-195,187.5,275,292.5,-300,292.5,785
7,M,Clinton Kinley,SBD,C,105,Single-ply,1996,Louisiana State University,LA,93.7,-290,295,302.5,302.5,215,-227.5,-227.5,215,245,255,-270,255,772.5
8,M,Trey Taylor,SBD,C,105,Single-ply,1995,Sam Houston State University,TX,98.7,267.5,275,285,285,182.5,190,200,200,272.5,-285,285,285,770
9,M,Tevin Guillot,SBD,C,105,Single-ply,1993,University of Louisiana At Lafayette,LA,100.5,265,280,300,300,177.5,190,-207.5,190,265,275,-285,275,765
10,M,Taner Renfro,SBD,C,105,Single-ply,1996,,TX,103.7,285,300,-317.5,300,145,162.5,-175,162.5,237.5,250,-265,250,712.5
11,M,Bryson Chaisson,SBD,C,105,Single-ply,1995,University of Louisiana At Lafayette,LA,102.8,245,252.5,265,265,152.5,162.5,172.5,172.5,255,265,-275,265,702.5
12,M,Kaleb Murray,SBD,C,105,Single-ply,1995,University of Louisiana At Lafayette,LA,101.1,230,235,245,245,105,142.5,-152.5,142.5,260,-270,-270,260,647.5
13,M,Louie Liu,SBD,C,105,Single-ply,1997,Northeastern University,MA,104.5,240,260,-272.5,260,140,-145,-145,140,235,245,-250,245,645
14,M,Alex Bruskin,SBD,C,105,Single-ply,1996,Northeastern University,MA,93.1,-255,255,-270,255,-140,-140,140,140,220,230,-250,230,625
15,M,Armando Osorio,SBD,C,105,Single-ply,1994,Sam Houston State University,TX,100.2,-212.5,212.5,225,225,147.5,157.5,162.5,162.5,205,-215,215,215,602.5
DQ,M,James Marcotte,SBD,C,105,Single-ply,1991,University of Rhode Island,MA,100.8,-295,-295,-295,,,,,,,,,,
DQ,M,Kevin Cooksy,SBD,C,105,Single-ply,1995,Sam Houston State University,TX,104.4,-285,-285,,,,,,,,,,,
1,M,Chandler McKane,SBD,C,120,Single-ply,1996,Louisiana Tech,LA,114.6,292.5,305,312.5,312.5,215,-225,225,225,280,287.5,-292.5,287.5,825
2,M,Brandon Graham,SBD,C,120,Single-ply,1991,,PA,110.7,302.5,-310,310,310,185,192.5,-200,192.5,295,-302.5,305,305,807.5
3,M,Joshua Brown,SBD,C,120,Single-ply,1998,Texas A&M Kingsville,TX,107.8,325,342.5,-347.5,342.5,-205,205,215,215,240,247.5,-252.5,247.5,805
4,M,Nathaniel Flores,SBD,C,120,Single-ply,1996,Sam Houston State University,TX,115.7,-290,290,-300,290,205,212.5,220,220,255,265,275,275,785
5,M,Stephen Springfield,SBD,C,120,Single-ply,1998,Mississippi State University,MS,108,300,-317.5,317.5,317.5,170,-177.5,177.5,177.5,287.5,-312.5,-312.5,287.5,782.5
6,M,Wesley Knox,SBD,C,120,Single-ply,1995,Northeastern University,MA,119,310,-320,-320,310,205,-212.5,-212.5,205,240,255,-272.5,255,770
7,M,Eric Jacques,SBD,C,120,Single-ply,1994,Northeastern University,ME,113.4,270,280,-285,280,-160,160,170,170,270,280,-285,280,730
8,M,Mitchell Cowman,SBD,C,120,Single-ply,1997,Midland University,WI,106.2,250,265,-277.5,265,205,-215,-215,205,240,255,-262.5,255,725
9,M,Jonathan Wang,SBD,C,120,Single-ply,1996,University of Texas at Austin,TX,114.9,260,270,-280,270,207.5,217.5,-222.5,217.5,232.5,-240,-240,232.5,720
10,M,Micah Doyle,SBD,C,120,Single-ply,1998,Louisiana State University,LA,119.2,267.5,-275,-280,267.5,182.5,197.5,-202.5,197.5,242.5,250,-260,250,715
11,M,Wyatt Fagan,SBD,C,120,Single-ply,1994,Virginia Military Institute,VA,116.5,282.5,-300,-300,282.5,-147.5,147.5,155,155,272.5,-277.5,-277.5,272.5,710
12,M,Lorenzo Baeza,SBD,C,120,Single-ply,1996,Sam Houston State University,TX,118.6,265,277.5,285,285,-175,175,187.5,187.5,215,227.5,237.5,237.5,710
13,M,Sami Meharzi,SBD,C,120,Single-ply,1995,,CO,119.2,255,267.5,280,280,165,170,-172.5,170,240,260,-272.5,260,710
14,M,Blake Shaw,SBD,C,120,Single-ply,1996,Louisiana State University,IL,108.1,257.5,-275,282.5,282.5,152.5,160,170,170,225,237.5,250,250,702.5
15,M,Blair Quebedeaux,SBD,C,120,Single-ply,1997,,LA,117,252.5,272.5,285,285,165,175,182.5,182.5,200,215,227.5,227.5,695
16,M,Grant Senft,SBD,C,120,Single-ply,1995,Pennsylvania State University,PA,112.9,277.5,285,-292.5,285,165,170,175,175,212.5,232.5,-240,232.5,692.5
17,M,Zachary Stout,SBD,C,120,Single-ply,1995,University of Louisiana At Lafayette,LA,105.8,287.5,-297.5,-297.5,287.5,182.5,-192.5,-192.5,182.5,217.5,-230,-230,217.5,687.5
18,M,Jacob Zimmerman,SBD,C,120,Single-ply,1998,,WI,111.2,230,240,250,250,-167.5,177.5,-187.5,177.5,225,235,240,240,667.5
19,M,Jim Sankey,SBD,C,120,Single-ply,1993,Pennsylvania State University,PA,113.4,227.5,245,-262.5,245,-205,-207.5,207.5,207.5,-212.5,-212.5,212.5,212.5,665
20,M,Matthew Reed,SBD,C,120,Single-ply,1998,Louisiana Tech,LA,105.9,282.5,-290,-290,282.5,117.5,-180,-180,117.5,245,260,-272.5,260,660
1,M,Donald Treglia,SBD,C,120+,Single-ply,1996,Louisiana Tech,LA,144.5,320,335,-345,335,192.5,242.5,250,250,-290,-290,290,290,875
2,M,Declan Dilley,SBD,C,120+,Single-ply,1998,,WI,137.5,307.5,320,327.5,327.5,225,-237.5,240,240,270,275,282.5,282.5,850
3,M,Charterrius Terry,SBD,C,120+,Single-ply,1997,Louisiana Tech,LA,133.9,352.5,365,375,375,-182.5,182.5,-200,182.5,280,287.5,-292.5,287.5,845
4,M,John Dumas,SBD,C,120+,Single-ply,1991,University of Louisiana At Lafayette,LA,125.3,340,355,-357.5,355,195,205,-212.5,205,260,-277.5,-285,260,820
5,M,Greg Ormiston,SBD,C,120+,Single-ply,1993,Texas A&M Kingsville,TX,131.3,267.5,-282.5,282.5,282.5,192.5,-200,-200,192.5,-255,-255,255,255,730
6,M,Jose Alaniz,SBD,C,120+,Single-ply,1993,Sam Houston State University,TX,146,-235,235,-242.5,235,182.5,192.5,202.5,202.5,215,-225,225,225,662.5
DQ,M,Dylon Cook,SBD,C,120+,Single-ply,1998,Louisiana State University,LA,124.8,377.5,397.5,-410,397.5,-215,-220,-225,,-275,,,,
G,M,Dylan Trawinski,SBD,R-G,74,Raw,1997,Rutgers University,NJ,74,137.5,142.5,147.5,147.5,100,-105,105,105,180,187.5,192.5,192.5,445
DQ,M,Matthew Laferriere,SBD,R-G,74,Raw,1998,University of Rhode Island,RI,70.6,150,157.5,165,165,-100,-100,-100,,172.5,182.5,190,190,
G,M,Erik Kozina,SBD,R-G,83,Raw,1993,University of Illinois at Chicago,IL,77.5,172.5,180,192.5,192.5,100,105,-117.5,105,-190,200,212.5,212.5,510
G,M,Jeremy Galloway,SBD,R-G,93,Raw,1996,University of Hartford,CT,84,147.5,152.5,162.5,162.5,130,135,-137.5,135,192.5,202.5,215,215,512.5
G,M,Jeremy Oettinger,SBD,R-G,120,Raw,1994,Pennsylvania State University,PA,117.9,227.5,250,-265,250,140,182.5,195,195,227.5,272.5,285,285,730
G,M,David Lee,SBD,R-G,120,Raw,1996,Rutgers University,NJ,113.8,225,235,245,245,145,155,162.5,162.5,227.5,237.5,242.5,242.5,650
1,M,Talon Romero,SBD,R-C,53,Raw,1998,University of Texas at Austin,TX,51.9,107.5,117.5,125,125,85,92.5,-97.5,92.5,152.5,167.5,175,175,392.5
2,M,Derrick Lien,SBD,R-C,53,Raw,1996,,CA,51.1,-125,135,140.5,140.5,75,82.5,90,90,140,160,-165,160,390.5
3,M,Eddie Taylor,SBD,R-C,53,Raw,1997,Louisiana Tech,LA,52.1,115,-135,135,135,75,-85,-85,75,-145,145,147.5,147.5,357.5
4,M,Luis Gonzalez,SBD,R-C,53,Raw,1998,Texas A&M Kingsville,TX,53,-117.5,117.5,125,125,70,75,-77.5,75,132.5,142.5,-160,142.5,342.5
5,M,Patrick Cruz,SBD,R-C,53,Raw,1995,,WA,52.7,92.5,105,-110,105,60,65,-67.5,65,127.5,142.5,-152.5,142.5,312.5
1,M,Charlie Yeng,SBD,R-C,59,Raw,1997,University of Texas at Austin,TX,58,162.5,172.5,180,180,105,110,115,115,205,215,-225,215,510
2,M,Emmit Metzger,SBD,R-C,59,Raw,1997,McKendree University,IL,58.7,165,175,-182.5,175,100,105,-110,105,187.5,202.5,-210,202.5,482.5
3,M,Tyler Coleman,SBD,R-C,59,Raw,1997,Ohio State University,OH,58.4,162.5,172.5,-177.5,172.5,92.5,100,105,105,180,190,195,195,472.5
4,M,Khemarintr Suwanchote,SBD,R-C,59,Raw,1993,,WA,58.7,-147.5,160,-172.5,160,112.5,115,118,118,192.5,-222.5,-222.5,192.5,470.5
5,M,Michael Freno,SBD,R-C,59,Raw,1996,Rutgers University,NJ,58.9,155,160,162.5,162.5,97.5,100,102.5,102.5,190,200,-202.5,200,465
6,M,Brandon Sauceda,SBD,R-C,59,Raw,1997,Texas A&M Kingsville,TX,59,145,160,-162.5,160,85,92.5,97.5,97.5,187.5,202.5,-210,202.5,460
7,M,Justin Dowdy,SBD,R-C,59,Raw,1997,University of North Texas,TX,56.5,150,157.5,162.5,162.5,102.5,107.5,112.5,112.5,175,182.5,-190,182.5,457.5
8,M,Kevin Doheny,SBD,R-C,59,Raw,1996,Florida State University,FL,57.4,145,157.5,-160,157.5,-95,95,-105,95,175,185,192.5,192.5,445
9,M,Nick Gilmore,SBD,R-C,59,Raw,1994,Miami University,OH,58.5,145,160,165,165,80,85,-90,85,162.5,172.5,182.5,182.5,432.5
10,M,Ryan Ngo,SBD,R-C,59,Raw,1998,,WA,58.8,135,-142.5,142.5,142.5,60,67.5,-70,67.5,150,165,-177.5,165,375
11,M,Vincent Nguyen,SBD,R-C,59,Raw,1997,,WA,58.6,110,117.5,125,125,-75,77.5,82.5,82.5,140,150,160,160,367.5
12,M,Timothy Sweeney,SBD,R-C,59,Raw,1997,United States Military Academy,NY,58.1,107.5,115,120,120,82.5,87.5,-90,87.5,140,147.5,157.5,157.5,365
13,M,Corey Lieb,SBD,R-C,59,Raw,1995,,FL,58.2,95,102.5,115,115,92.5,95,-97.5,95,135,-140,,135,345
DQ,M,Marcus Hernandez,SBD,R-C,59,Raw,1995,,TX,58.9,150,165,172.5,172.5,85,95,97.5,97.5,-205,-205,,,
1,M,Dallas Bey,SBD,R-C,66,Raw,1995,Rutgers University,NJ,65.8,207.5,217.5,227.5,227.5,145,147.5,150,150,227.5,252.5,-260,252.5,630
2,M,Thomas Soto,SBD,R-C,66,Raw,1995,Texas A&M Kingsville,TX,65,197.5,-212.5,220,220,115,-130,-132.5,115,225,-247.5,-265,225,560
3,M,Alexander Strahle,SBD,R-C,66,Raw,1995,,IN,65.4,177.5,187.5,192.5,192.5,122.5,130,132.5,132.5,202.5,217.5,222.5,222.5,547.5
4,M,Noel Tuvera,SBD,R-C,66,Raw,1996,Rutgers University,NJ,64,180,187.5,192.5,192.5,-135,135,-137.5,135,182.5,190,200,200,527.5
5,M,William Ryder,SBD,R-C,66,Raw,1995,Texas A&M Kingsville,TX,65.9,175,-182.5,-182.5,175,130,-135,-135,130,212.5,-217.5,-217.5,212.5,517.5
6,M,Cody Hartman,SBD,R-C,66,Raw,1998,,TX,65.7,185,190,-200,190,115,120,-125,120,200,-210,-210,200,510
7,M,Promepetch Suwanchote,SBD,R-C,66,Raw,1994,,WA,64.5,150,165,-170,165,100,105,107.5,107.5,215,230,-232.5,230,502.5
8,M,Kody Brodwater,SBD,R-C,66,Raw,1995,Oklahoma State University,OK,65.6,167.5,172.5,175,175,-100,100,105,105,207.5,220,-235,220,500
9,M,Michael Nguyen,SBD,R-C,66,Raw,1996,University of Houston,TX,65.6,152.5,162.5,-170,162.5,100,107.5,115,115,197.5,207.5,-217.5,207.5,485
10,M,Jonathan Linden,SBD,R-C,66,Raw,1997,United States Military Academy,NY,65,157.5,162.5,-170,162.5,92.5,-95,-95,92.5,212.5,227.5,-235,227.5,482.5
11,M,Remington Paris,SBD,R-C,66,Raw,1997,McKendree University,IL,65.9,160,167.5,175,175,100,105,-107.5,105,182.5,197.5,202.5,202.5,482.5
12,M,Kevin Lam,SBD,R-C,66,Raw,1994,Ohio State University,OH,65.2,162.5,-172.5,-172.5,162.5,117.5,120,122.5,122.5,182.5,195,-205,195,480
13,M,Matthew Sananikone,SBD,R-C,66,Raw,1995,University of Houston,TX,65.5,150,155,162.5,162.5,95,102.5,-105,102.5,197.5,215,-227.5,215,480
14,M,Bryce Paszkiewicz,SBD,R-C,66,Raw,1997,McKendree University,IL,62.8,145,155,-157.5,155,90,95,-100,95,205,217.5,-227.5,217.5,467.5
15,M,Michael Cazares,SBD,R-C,66,Raw,1996,Sam Houston State University,TX,64.5,155,165,-170,165,-102.5,105,-107.5,105,177.5,190,197.5,197.5,467.5
16,M,Marc Lariza,SBD,R-C,66,Raw,1993,,WA,65.4,150,160,167.5,167.5,-97.5,97.5,102.5,102.5,190,-197.5,197.5,197.5,467.5
17,M,Jordan Robbins,SBD,R-C,66,Raw,1998,University of Texas at Austin,TX,65.1,172.5,-180,-180,172.5,102.5,110,115,115,175,-185,-185,175,462.5
18,M,Sean Patterson,SBD,R-C,66,Raw,1997,,CO,65.6,-165,172.5,180,180,85,92.5,-97.5,92.5,175,190,-205,190,462.5
19,M,Tri Nguyen,SBD,R-C,66,Raw,1997,University of Houston,TX,64.6,-160,160,162.5,162.5,95,100,-105,100,180,190,192.5,192.5,455
20,M,Brandon Roseborough,SBD,R-C,66,Raw,1997,United States Military Academy,NY,65.6,147.5,155,162.5,162.5,102.5,107.5,112.5,112.5,165,180,-192.5,180,455
21,M,Josh Cortez,SBD,R-C,66,Raw,1998,University of North Texas,TX,64.5,152.5,160,-165,160,107.5,-115,-115,107.5,177.5,185,-192.5,185,452.5
22,M,Tim Clairmont,SBD,R-C,66,Raw,1998,,TX,64.9,145,150,157.5,157.5,92.5,97.5,102.5,102.5,165,172.5,182.5,182.5,442.5
23,M,Alec Davis,SBD,R-C,66,Raw,1995,Miami University,OH,64.7,135,142.5,147.5,147.5,87.5,95,-97.5,95,180,190,197.5,197.5,440
24,M,Jason Lee,SBD,R-C,66,Raw,1997,University of Maryland,MD,65.1,150,160,170,170,92.5,-97.5,-97.5,92.5,160,170,177.5,177.5,440
25,M,Nicolas McLaughlin,SBD,R-C,66,Raw,1995,United States Air Force Academy,CO,65.3,150,-160,-160,150,100,107.5,110,110,160,170,-175,170,430
26,M,Christopher Alexander,SBD,R-C,66,Raw,1993,,LA,64.9,137.5,145,150,150,77.5,85,90,90,-180,-187.5,187.5,187.5,427.5
27,M,Nicholas Khoo,SBD,R-C,66,Raw,1995,University of Texas at Austin,TX,65.5,130,137.5,142.5,142.5,92.5,100,102.5,102.5,165,172.5,177.5,177.5,422.5
28,M,Cody Gan,SBD,R-C,66,Raw,1995,Florida State University,FL,65.5,117.5,127.5,-137.5,127.5,105,112.5,-117.5,112.5,157.5,172.5,180,180,420
29,M,Billy Tran,SBD,R-C,66,Raw,1987,Rutgers University,NJ,65.2,-137.5,145,150,150,97.5,102.5,-107.5,102.5,135,142.5,147.5,147.5,400
30,M,William Armstrong,SBD,R-C,66,Raw,1996,,FL,64.2,-137.5,137.5,142.5,142.5,102.5,-110,-110,102.5,142.5,-152.5,152.5,152.5,397.5
31,M,Dmitry Rivin,SBD,R-C,66,Raw,1995,University of Maryland,MD,64.8,-127.5,127.5,135,135,77.5,82.5,-85,82.5,162.5,170,180,180,397.5
32,M,Rayyan Kubbar,SBD,R-C,66,Raw,1995,Oklahoma State University,OK,65.2,110,122.5,125,125,77.5,82.5,-85,82.5,170,182.5,185,185,392.5
DQ,M,Nathaniel Olvera,SBD,R-C,66,Raw,1998,Texas A&M Kingsville,TX,65.7,-170,170,185,185,105,-115,-115,105,-210,-210,-230,,
1,M,Mason Cabney,SBD,R-C,74,Raw,1998,Midland University,IA,73.4,237.5,250.5,255.5,255.5,137.5,142.5,,142.5,-262.5,262.5,272.5,272.5,670.5
2,M,Kevin Nguyen,SBD,R-C,74,Raw,1995,,VA,72.1,225,235,240,240,122.5,130,135,135,265,277.5,-297.5,277.5,652.5
3,M,Alexander Mcquillen,SBD,R-C,74,Raw,1995,Ohio State University,OH,73.6,225,235,-242.5,235,135,140,145,145,227.5,240,245,245,625
4,M,Rocky Tatiefo,SBD,R-C,74,Raw,1997,University of Maryland,MD,72.6,200,220,-227.5,220,122.5,-127.5,-127.5,122.5,267.5,-275,-275,267.5,610
5,M,Daniel O'Hara,SBD,R-C,74,Raw,1994,,CT,72.2,190,200,-205,200,137.5,-147.5,-147.5,137.5,232.5,242.5,-247.5,242.5,580
6,M,James Landry,SBD,R-C,74,Raw,1992,Florida State University,NH,73.6,195,207.5,212.5,212.5,122.5,-127.5,127.5,127.5,220,-232.5,237.5,237.5,577.5
7,M,Joseph Ramos,SBD,R-C,74,Raw,1996,University of Texas at San Antonio,TX,72.4,190,195,-197.5,195,132.5,137.5,-140,137.5,210,217.5,222.5,222.5,555
8,M,Brady Burman-Magday,SBD,R-C,74,Raw,1997,University of Maryland,MD,73.5,190,-202.5,-202.5,190,127.5,130,-135,130,205,220,235,235,555
10,M,Jeremy Miller,SBD,R-C,74,Raw,1995,,IL,73.7,182.5,195,-205,195,137.5,-147.5,-150,137.5,210,222.5,-232.5,222.5,555
9,M,Mark Blum,SBD,R-C,74,Raw,1995,Ohio State University,OH,73.7,182.5,190,195,195,107.5,112.5,120,120,-240,240,-245,240,555
11,M,Simon Luong,SBD,R-C,74,Raw,1994,University of Houston,TX,72.2,170,182.5,190,190,120,127.5,-137.5,127.5,215,225,235,235,552.5
12,M,Brian Degori,SBD,R-C,74,Raw,1995,United States Military Academy,NY,72.5,177.5,185,192.5,192.5,117.5,125,-135,125,200,212.5,227.5,227.5,545
13,M,Anand Pant,SBD,R-C,74,Raw,1996,University of Texas at Austin,TX,73.7,165,-177.5,182.5,182.5,120,127.5,-137.5,127.5,220,-230,232.5,232.5,542.5
14,M,Denny Chung,SBD,R-C,74,Raw,1996,United States Military Academy,NJ,72.7,-185,185,190,190,120,-125,-125,120,215,230,-240,230,540
15,M,Ronnie Cormier,SBD,R-C,74,Raw,1997,,LA,74,177.5,182.5,190,190,115,122.5,-127.5,122.5,227.5,-235,-235,227.5,540
16,M,Issac Quevedo,SBD,R-C,74,Raw,1998,Pennsylvania State University,FL,73.2,182.5,195,-210,195,-115,115,-122.5,115,-195,207.5,225,225,535
17,M,George Chu,SBD,R-C,74,Raw,1996,Rutgers University,NJ,71.5,190,200,210,210,95,97.5,100,100,205,215,-225,215,525
18,M,Cantrell Jackson,SBD,R-C,74,Raw,1996,Louisiana State University,GA,72.7,-192.5,-192.5,192.5,192.5,100,110,112.5,112.5,220,-235,-235,220,525
19,M,Andrew Leonard,SBD,R-C,74,Raw,1996,Midland University,NE,72.9,175,182.5,192.5,192.5,127.5,135,140,140,175,185,192.5,192.5,525
20,M,Jeremy Rodriguez,SBD,R-C,74,Raw,1996,Rutgers University,NJ,73.6,170,177.5,-182.5,177.5,95,100,-102.5,100,220,232.5,240,240,517.5
21,M,Thomas Gonzalez,SBD,R-C,74,Raw,1993,,TX,72.8,165,175,182.5,182.5,122.5,130,-137.5,130,185,195,202.5,202.5,515
22,M,James Windham,SBD,R-C,74,Raw,1994,Louisiana Tech,LA,73.6,180,-185,-185,180,125,-130,-130,125,190,197.5,210,210,515
23,M,Julian Flores,SBD,R-C,74,Raw,1998,Texas A&M Kingsville,TX,73.7,157.5,170,-180,170,-107.5,-115,115,115,205,215,227.5,227.5,512.5
24,M,Ryan O'Connell,SBD,R-C,74,Raw,1997,United States Military Academy,NY,71.8,160,167.5,-175,167.5,120,125,132.5,132.5,185,197.5,210,210,510
25,M,Daniel Murillo,SBD,R-C,74,Raw,1995,,TX,72.9,165,175,182.5,182.5,100,102.5,110,110,192.5,207.5,215,215,507.5
26,M,Baron Williams,SBD,R-C,74,Raw,1995,,FL,68.7,162.5,175,182.5,182.5,115,127.5,-140,127.5,-165,182.5,195,195,505
27,M,Justin Friesenhahn,SBD,R-C,74,Raw,1995,,TX,72.3,170,182.5,187.5,187.5,107.5,115,125,125,185,192.5,-207.5,192.5,505
28,M,Sam Gallant,SBD,R-C,74,Raw,1996,Texas State University,TX,70.5,160,-175,180,180,105,115,-117.5,115,197.5,207.5,-215,207.5,502.5
29,M,Christopher Natividad,SBD,R-C,74,Raw,1994,Rutgers University,NJ,73.6,175,182.5,-185,182.5,-127.5,130,-135,130,190,-200,-200,190,502.5
30,M,Blaine Wiemers,SBD,R-C,74,Raw,1996,University of Texas at San Antonio,TX,72.1,165,170,-180,170,115,-122.5,122.5,122.5,197.5,207.5,-215,207.5,500
31,M,Trystan Self,SBD,R-C,74,Raw,1997,Oklahoma State University,OK,73.8,160,167.5,172.5,172.5,-115,115,117.5,117.5,192.5,210,-227.5,210,500
32,M,Andrew Tabedzki,SBD,R-C,74,Raw,1997,Rutgers University,NJ,73.7,165,175,182.5,182.5,105,110,-112.5,110,185,195,200,200,492.5
33,M,William Van Deusen,SBD,R-C,74,Raw,1995,,VA,73.2,160,-167.5,167.5,167.5,95,-100,-105,95,210,220,225,225,487.5
34,M,Gregory Laws,SBD,R-C,74,Raw,1997,University of Houston,TX,70.9,145,155,165,165,95,102.5,-110,102.5,185,195,207.5,207.5,475
35,M,Ross Young,SBD,R-C,74,Raw,1995,University of Texas at Austin,TX,72.6,147.5,155,167.5,167.5,102.5,110,-117.5,110,177.5,190,197.5,197.5,475
36,M,Paul Carson,SBD,R-C,74,Raw,1996,University of Rhode Island,NJ,69.6,137.5,147.5,155,155,107.5,115,120,120,170,182.5,192.5,192.5,467.5
37,M,Charles Jiang,SBD,R-C,74,Raw,1997,University of Texas at Austin,TX,71.3,160,170,-182.5,170,105,112.5,-120,112.5,162.5,175,185,185,467.5
38,M,Maxwell Lindsay,SBD,R-C,74,Raw,1996,University of Pittsburgh,PA,72.3,155,162.5,-175,162.5,102.5,110,112.5,112.5,177.5,185,192.5,192.5,467.5
39,M,Philip Tomeo,SBD,R-C,74,Raw,1995,,FL,70.4,137.5,155,-157.5,155,97.5,102.5,-107.5,102.5,182.5,-205,205,205,462.5
40,M,Lee Deleon,SBD,R-C,74,Raw,1993,University of Houston,TX,72.4,160,170,-177.5,170,90,-97.5,-97.5,90,187.5,195,202.5,202.5,462.5
41,M,Alan-Michael Alfaro,SBD,R-C,74,Raw,1997,,TX,69.3,145,-155,-155,145,-97.5,97.5,100,100,200,215,-227.5,215,460
42,M,Cyrus Tyler,SBD,R-C,74,Raw,1997,University of Rhode Island,CT,72.7,165,-172.5,-172.5,165,100,-105,,100,182.5,195,-200,195,460
43,M,Questin Stumpff,SBD,R-C,74,Raw,1998,University of Texas at Austin,TX,72.8,162.5,175,-182.5,175,90,100,107.5,107.5,162.5,175,-182.5,175,457.5
44,M,Caleb Eagans,SBD,R-C,74,Raw,1996,Texas A&M Kingsville,TX,73.4,142.5,160,175,175,87.5,-97.5,-97.5,87.5,177.5,185,195,195,457.5
45,M,Mitchell Keo,SBD,R-C,74,Raw,1996,University of Texas at Austin,TX,69.4,127.5,137.5,147.5,147.5,85,92.5,97.5,97.5,182.5,197.5,210,210,455
46,M,Derek Pham,SBD,R-C,74,Raw,1997,,VA,73.6,150,157.5,167.5,167.5,80,85,-92.5,85,185,195,202.5,202.5,455
47,M,Austin Li,SBD,R-C,74,Raw,1996,,TX,72.1,147.5,157.5,162.5,162.5,82.5,87.5,90,90,182.5,-197.5,200,200,452.5
48,M,Ramon Rivera,SBD,R-C,74,Raw,1996,,VA,72.6,152.5,157.5,167.5,167.5,92.5,97.5,-102.5,97.5,165,180,187.5,187.5,452.5
49,M,Mark Gall,SBD,R-C,74,Raw,1997,University of Rhode Island,RI,71.3,135,145,147.5,147.5,95,102.5,107.5,107.5,190,-207.5,-212.5,190,445
50,M,Andrew Stone,SBD,R-C,74,Raw,1996,University of Rhode Island,VA,69.5,127.5,140,150,150,102.5,-105,105,105,165,175,187.5,187.5,442.5
51,M,Nathan Gunawan,SBD,R-C,74,Raw,1997,Northwestern University,IL,71.8,-145,145,150,150,-100,102.5,-105,102.5,182.5,190,-200,190,442.5
52,M,William Clift,SBD,R-C,74,Raw,1995,University of Texas at Austin,TX,73.3,-185,190,-200,190,20,,,20,222.5,232.5,-245,232.5,442.5
53,M,James Wong,SBD,R-C,74,Raw,1996,Rutgers University,NJ,71,147.5,155,162.5,162.5,95,100,-102.5,100,172.5,-182.5,-182.5,172.5,435
54,M,Yen Le,SBD,R-C,74,Raw,1995,,WA,71.1,140,147.5,150,150,90,95,97.5,97.5,175,-185,187.5,187.5,435
55,M,Jeffrey Small,SBD,R-C,74,Raw,1994,Pennsylvania State University,VA,72.4,132.5,142.5,147.5,147.5,90,-95,95,95,177.5,192.5,-202.5,192.5,435
56,M,Jeffrey Furnish,SBD,R-C,74,Raw,1997,,TX,68.9,142.5,152.5,-157.5,152.5,97.5,102.5,105,105,165,175,-177.5,175,432.5
57,M,Cameron Mohrfeld,SBD,R-C,74,Raw,1996,Rutgers University,NJ,73.3,137.5,145,152.5,152.5,90,95,-100,95,167.5,177.5,185,185,432.5
58,M,Kerry Ferguson,SBD,R-C,74,Raw,1994,,WA,72.9,152.5,-165,-165,152.5,90,95,-102.5,95,167.5,-182.5,182.5,182.5,430
59,M,Jose Dhaga,SBD,R-C,74,Raw,1996,Rutgers University,NJ,72.7,145,152.5,157.5,157.5,72.5,-77.5,-77.5,72.5,-182.5,182.5,192.5,192.5,422.5
60,M,Jonathan Nazha,SBD,R-C,74,Raw,1995,,NJ,71.8,117.5,127.5,-132.5,127.5,90,95,-97.5,95,172.5,185,190,190,412.5
DQ,M,Michael Elizondo,SBD,R-C,74,Raw,1993,University of Texas at San Antonio,TX,73,145,185,-190,185,-137.5,-137.5,-137.5,,227.5,237.5,-240,237.5,
DQ,M,Jory Heath,SBD,R-C,74,Raw,1993,United States Military Academy,NY,73.5,-180,-180,-180,,130,137.5,-145,137.5,215,222.5,227.5,227.5,
DQ,M,Charles Auta,SBD,R-C,74,Raw,1996,Northwestern University,IL,74,207.5,217.5,225,225,-140,140,-142.5,140,-242.5,-255,-255,,
1,M,Michael Jin,SBD,R-C,83,Raw,1996,University of Houston,TX,82.5,217.5,232.5,242.5,242.5,160,170,177.5,177.5,247.5,-265,265,265,685
2,M,Austin Stephen,SBD,R-C,83,Raw,1995,Texas A&M Kingsville,TX,81.5,225,235,-240,235,137.5,145,152.5,152.5,260,280,285,285,672.5
3,M,Nicholas Arce,SBD,R-C,83,Raw,1994,,GA,82.9,230,240,250,250,142.5,150,-155,150,250,265,272.5,272.5,672.5
4,M,Jay Dove,SBD,R-C,83,Raw,1994,Ohio State University,OH,82.3,232.5,242.5,-247.5,242.5,150,155,160,160,237.5,250,260,260,662.5
5,M,Richard Yun,SBD,R-C,83,Raw,1995,Rutgers University,PA,82.7,215,220,-227.5,220,152.5,157.5,-162.5,157.5,265,272.5,285,285,662.5
6,M,Corey Greenberg,SBD,R-C,83,Raw,1995,,PA,82.5,205,220,227.5,227.5,140,145,147.5,147.5,262.5,280,-290,280,655
7,M,Brandt Pilgram,SBD,R-C,83,Raw,1996,Texas A&M Kingsville,TX,82.6,215,225,-232.5,225,132.5,142.5,-145,142.5,265,282.5,-297.5,282.5,650
8,M,Jesse Herd,SBD,R-C,83,Raw,1995,Tarleton State University,TX,82.7,215,227.5,230,230,147.5,155,160,160,247.5,260,-272.5,260,650
9,M,Alec Sweeney,SBD,R-C,83,Raw,1998,University of Illinois at Chicago,IL,81.4,202.5,220,-227.5,220,142.5,157.5,-160,157.5,247.5,265,-272.5,265,642.5
10,M,Daniel Stump,SBD,R-C,83,Raw,1997,University of Maryland,MD,82.4,200,215,227.5,227.5,137.5,-145,145,145,-240,255,265,265,637.5
11,M,Brandon Dean,SBD,R-C,83,Raw,1994,Ohio State University,OH,81,212.5,220,-222.5,220,137.5,145,150,150,242.5,255,265,265,635
12,M,Brandon LoPresti,SBD,R-C,83,Raw,1995,Rutgers University,NJ,82.1,215,222.5,232.5,232.5,142.5,150,-157.5,150,235,252.5,-267.5,252.5,635
13,M,Rob Escalante,SBD,R-C,83,Raw,1997,,TX,82.7,205,215,225,225,142.5,150,157.5,157.5,225,235,242.5,242.5,625
14,M,Andrew Labutka,SBD,R-C,83,Raw,1995,University of Pittsburgh,PA,82.4,235,245,-257.5,245,132.5,137.5,142.5,142.5,232.5,-240,-240,232.5,620
15,M,Brian Evans,SBD,R-C,83,Raw,1995,Ohio State University,OH,82.9,192.5,200,205,205,142.5,150,152.5,152.5,250,262.5,-267.5,262.5,620
16,M,Devyn Hebbe,SBD,R-C,83,Raw,1997,University of North Texas,TX,80.2,220,230,-237.5,230,110,115,120,120,240,252.5,260,260,610
17,M,Elijah Ellerman,SBD,R-C,83,Raw,1995,,PA,81.8,212.5,-225,-225,212.5,135,145,-147.5,145,-247.5,247.5,-262.5,247.5,605
18,M,Dawit Girma,SBD,R-C,83,Raw,1994,University of Maryland,MD,80.7,192.5,205,215,215,130,137.5,142.5,142.5,230,242.5,-255,242.5,600
19,M,George Kratz,SBD,R-C,83,Raw,1995,United States Military Academy,NY,80.7,200,210,222.5,222.5,125,-130,132.5,132.5,220,232.5,245,245,600
20,M,Omotoyosi Oyedeji,SBD,R-C,83,Raw,1995,United States Military Academy,NY,82.3,182.5,192.5,202.5,202.5,120,125,130,130,230,245,260,260,592.5
21,M,Yu Du,SBD,R-C,83,Raw,1996,University of California Los Angeles,CA,83,205,217.5,225,225,127.5,135,140,140,210,227.5,-232.5,227.5,592.5
22,M,Andrew Richard,SBD,R-C,83,Raw,1996,,MA,81.8,207.5,217.5,225,225,135,142.5,145,145,220,-235,-240,220,590
23,M,Ryan Sanchez,SBD,R-C,83,Raw,1996,University of Texas at San Antonio,TX,82.3,205,210,220,220,122.5,130,-135,130,240,-247.5,,240,590
24,M,Bradly Sodam,SBD,R-C,83,Raw,1996,McKendree University,IL,82.4,210,220,-232.5,220,130,137.5,-142.5,137.5,217.5,230,-235,230,587.5
25,M,Raymond Chow,SBD,R-C,83,Raw,1993,University of Houston,FL,82.6,197.5,207.5,-220,207.5,-137.5,145,150,150,215,227.5,-232.5,227.5,585
26,M,Brandon Morales,SBD,R-C,83,Raw,1993,Sam Houston State University,TX,82.7,205,215,220,220,122.5,127.5,-130,127.5,237.5,-245,,237.5,585
27,M,Patrick Yabut,SBD,R-C,83,Raw,1994,,CA,81.3,180,190,-200,190,130,137.5,-145,137.5,230,242.5,255,255,582.5
28,M,Pat Walsh,SBD,R-C,83,Raw,1996,United States Military Academy,NY,82.7,192.5,200,210,210,130,137.5,-145,137.5,220,235,-252.5,235,582.5
29,M,John Etherton,SBD,R-C,83,Raw,1996,University of Maryland,VA,81.9,200,210,-217.5,210,-137.5,140,145,145,215,225,-230,225,580
30,M,Nick Olson,SBD,R-C,83,Raw,1994,,FL,82.1,185,205,-215,205,135,140,-142.5,140,225,-232.5,232.5,232.5,577.5
31,M,Brendan Brown,SBD,R-C,83,Raw,1998,United States Military Academy,NY,82.4,-192.5,192.5,215,215,122.5,130,-137.5,130,232.5,-240,-240,232.5,577.5
32,M,Christian Thompson-Perez,SBD,R-C,83,Raw,1995,Oklahoma State University,OK,82.1,190,202.5,-210,202.5,135,142.5,-150,142.5,210,220,230,230,575
33,M,James Stratton,SBD,R-C,83,Raw,1997,Rutgers University,NJ,83,185,197.5,-200,197.5,-127.5,-127.5,127.5,127.5,227.5,240,-245,240,565
34,M,Addison Brancheau,SBD,R-C,83,Raw,1995,University of Toledo,MI,81.8,200,-210,-210,200,122.5,127.5,-130,127.5,220,227.5,232.5,232.5,560
35,M,Connor Chumchal,SBD,R-C,83,Raw,1996,,TX,82.2,195,-200,-200,195,-130,130,-132.5,130,-235,235,-240,235,560
36,M,Aaron Duran,SBD,R-C,83,Raw,1996,University of Texas at Austin,TX,82.4,187.5,200,-212.5,200,115,125,-127.5,125,225,235,-245,235,560
37,M,Matthew LaButti,SBD,R-C,83,Raw,1994,University of Rhode Island,RI,82.5,187.5,200,207.5,207.5,120,125,-130,125,212.5,227.5,-242.5,227.5,560
38,M,Calvin Chen,SBD,R-C,83,Raw,1995,University of Houston,TX,81.8,170,185,195,195,132.5,137.5,-142.5,137.5,210,225,-235,225,557.5
39,M,David Garcia,SBD,R-C,83,Raw,1992,University of North Texas,TX,82,185,192.5,200,200,110,117.5,127.5,127.5,220,227.5,230,230,557.5
40,M,Travis Hall,SBD,R-C,83,Raw,1994,Texas State University,TX,81.2,185,192.5,-197.5,192.5,120,125,-127.5,125,215,227.5,232.5,232.5,550
41,M,Devraj Roy,SBD,R-C,83,Raw,1998,Rutgers University,NJ,82.1,182.5,190,197.5,197.5,120,127.5,135,135,202.5,210,217.5,217.5,550
42,M,Andrew Koelln,SBD,R-C,83,Raw,1996,Ohio State University,PA,79.4,167.5,177.5,182.5,182.5,115,122.5,-125,122.5,225,237.5,240,240,545
43,M,Nicholas Velez,SBD,R-C,83,Raw,1996,United States Military Academy,NY,81,165,172.5,177.5,177.5,115,120,125,125,225,240,242.5,242.5,545
44,M,Jonathan Lwowski,SBD,R-C,83,Raw,1994,University of Texas at San Antonio,TX,81.8,175,180,-185,180,120,-125,-125,120,237.5,245,-250,245,545
45,M,Zachary Holland,SBD,R-C,83,Raw,1994,,IL,77.5,210,-220,-220,210,-107.5,-112.5,112.5,112.5,210,220,-222.5,220,542.5
46,M,Jakob Herlitz,SBD,R-C,83,Raw,1997,,MA,79.4,182.5,192.5,200,200,115,125,127.5,127.5,195,210,-220,210,537.5
47,M,Travis Brooks,SBD,R-C,83,Raw,1993,United States Air Force Academy,CO,81.7,185,195,-197.5,195,130,137.5,140,140,185,195,202.5,202.5,537.5
48,M,Calven Quach,SBD,R-C,83,Raw,1996,Rutgers University,NJ,82.2,175,185,190,190,115,-120,-120,115,210,220,232.5,232.5,537.5
49,M,Ian Dickey,SBD,R-C,83,Raw,1995,University of Pittsburgh,PA,78,167.5,175,182.5,182.5,115,-120,120,120,-232.5,-232.5,232.5,232.5,535
50,M,John Beaubouef,SBD,R-C,83,Raw,1997,University of Texas at Austin,TX,82.1,157.5,167.5,185,185,102.5,112.5,-122.5,112.5,205,222.5,237.5,237.5,535
51,M,PT Yager,SBD,R-C,83,Raw,1996,Ohio State University,OH,80.3,175,185,192.5,192.5,130,135,140,140,200,-210,-210,200,532.5
52,M,Daniel Shulhan,SBD,R-C,83,Raw,1995,University of North Texas,TX,82.1,170,182.5,-192.5,182.5,112.5,-117.5,-117.5,112.5,237.5,-242.5,-242.5,237.5,532.5
53,M,Devin Goodkin,SBD,R-C,83,Raw,1996,,MO,81.3,-177.5,187.5,197.5,197.5,122.5,-127.5,132.5,132.5,195,-210,-217.5,195,525
54,M,Dominique Tan,SBD,R-C,83,Raw,1992,United States Military Academy,NY,79.4,165,172.5,177.5,177.5,115,-120,120,120,202.5,-217.5,217.5,217.5,515
55,M,Kenny Hua,SBD,R-C,83,Raw,1996,University of Houston,TX,78.8,-167.5,175,-192.5,175,-117.5,-122.5,122.5,122.5,200,215,-230,215,512.5
56,M,Connor Burke,SBD,R-C,83,Raw,1997,Texas A&M Kingsville,TX,80.3,157.5,-165,-165,157.5,120,-130,132.5,132.5,210,-220,-220,210,500
57,M,Sai Rahul Kumar,SBD,R-C,83,Raw,1996,United States Military Academy,NY,80.5,165,172.5,180,180,110,115,120,120,190,195,200,200,500
58,M,Nicholas Lombardi,SBD,R-C,83,Raw,1997,Pennsylvania State University,PA,75.7,155,160,165,165,105,112.5,-117.5,112.5,190,205,217.5,217.5,495
59,M,Nicholas Swisher,SBD,R-C,83,Raw,1998,University of North Texas,TX,78.5,117.5,185,-192.5,185,92.5,100,-105,100,210,-227.5,-227.5,210,495
60,M,Libny Villalobos,SBD,R-C,83,Raw,1992,Texas A&M Kingsville,TX,79.8,160,167.5,180,180,110,120,-127.5,120,172.5,182.5,195,195,495
61,M,Michael Perry,SBD,R-C,83,Raw,1997,Tarleton State University,TX,81.1,177.5,187.5,190,190,-110,110,-115,110,195,-202.5,-205,195,495
62,M,Ja'laquan Mitchell,SBD,R-C,83,Raw,1996,,NH,78.3,155,165,170,170,102.5,107.5,-112.5,107.5,200,215,-220,215,492.5
63,M,Preston Trudeau,SBD,R-C,83,Raw,1996,,MA,81,160,167.5,172.5,172.5,95,100,-105,100,192.5,205,215,215,487.5
64,M,Nicholas Dunaway,SBD,R-C,83,Raw,1995,Texas A&M Kingsville,TX,82.6,145,157.5,-165,157.5,105,112.5,,112.5,190,202.5,-215,202.5,472.5
65,M,Samuel Kim,SBD,R-C,83,Raw,1996,,NH,75.9,165,177.5,-185,177.5,95,102.5,-107.5,102.5,180,-185,187.5,187.5,467.5
66,M,Thomas Lemelin,SBD,R-C,83,Raw,1995,Midland University,AK,74.7,150,-162.5,165,165,92.5,95,-97.5,95,195,205,-207.5,205,465
67,M,David Brova,SBD,R-C,83,Raw,1996,Pennsylvania State University,PA,78,150,-160,165,165,85,92.5,-95,92.5,185,197.5,207.5,207.5,465
68,M,Andrew King,SBD,R-C,83,Raw,1995,University of Rhode Island,CT,81.5,145,160,-167.5,160,95,102.5,-107.5,102.5,180,195,202.5,202.5,465
69,M,Samuel Crawford,SBD,R-C,83,Raw,1994,,VA,80.5,137.5,147.5,157.5,157.5,92.5,100,-110,100,-182.5,192.5,205,205,462.5
70,M,Austin Rineer,SBD,R-C,83,Raw,1995,Pennsylvania State University,PA,75.7,150,157.5,165,165,82.5,87.5,92.5,92.5,182.5,190,200,200,457.5
71,M,Jared Campbell,SBD,R-C,83,Raw,1997,University of Texas at Austin,TX,78.2,-167.5,167.5,172.5,172.5,82.5,90,-95,90,180,187.5,195,195,457.5
72,M,Jordan Larson,SBD,R-C,83,Raw,1994,Northeastern University,MA,82.7,165,-175,-175,165,87.5,92.5,-95,92.5,180,187.5,-195,187.5,445
73,M,James Walther,SBD,R-C,83,Raw,1993,,TX,77.8,125,132.5,-140,132.5,107.5,112.5,115,115,182.5,190,195,195,442.5
74,M,Thang Nguyen,SBD,R-C,83,Raw,1995,,TX,79.1,-145,145,150,150,-72.5,72.5,77.5,77.5,190,195,200,200,427.5
75,M,Vladimir Kupec,SBD,R-C,83,Raw,1997,University of Texas at Austin,TX,78.1,127.5,135,145,145,100,-107.5,-107.5,100,150,170,180,180,425
DQ,M,Hunter Dong,SBD,R-C,83,Raw,1995,,NY,74.7,-160,,,,,,,,,,,,
DQ,M,Samuel Kim,SBD,R-C,83,Raw,1996,,NH,75.9,-165,,,,,,,,,,,,
DQ,M,Erik Kozina,SBD,R-C,83,Raw,1993,University of Illinois at Chicago,IL,77.5,-172.5,,,,,,,,,,,,
DQ,M,Matthew Merry,SBD,R-C,83,Raw,1995,University of Texas at Austin,TX,80.3,-182.5,182.5,-197.5,182.5,127.5,-135,,127.5,-220,-220,-220,,
DQ,M,Stephen Canovali,SBD,R-C,83,Raw,1995,University of Pittsburgh,PA,82.5,227.5,242.5,-252.5,242.5,140,-142.5,-142.5,140,-272.5,-272.5,-272.5,,
1,M,Caleb Harris,SBD,R-C,93,Raw,1996,Oklahoma State University,OK,93,-252.5,255,257.5,257.5,145,152.5,-155,152.5,265,275,292.5,292.5,702.5
2,M,Jordan Glenn,SBD,R-C,93,Raw,1993,Sam Houston State University,TX,89.4,237.5,245,250,250,-155,155,162.5,162.5,275,285,287.5,287.5,700
3,M,David Long,SBD,R-C,93,Raw,1994,Oklahoma State University,OK,91.2,227.5,242.5,247.5,247.5,137.5,142.5,-145,142.5,272.5,287.5,295.5,295.5,685.5
4,M,Alex Vignone,SBD,R-C,93,Raw,1994,Pennsylvania State University,PA,91.6,225,235,247.5,247.5,137.5,145,150,150,247.5,265,280,280,677.5
5,M,Joseph Best,SBD,R-C,93,Raw,1994,University of Illinois at Chicago,IL,92.8,227.5,240,-247.5,240,147.5,-160,-160,147.5,275,290,-300,290,677.5
6,M,Nicholas Taylor,SBD,R-C,93,Raw,1998,Texas A&M Kingsville,TX,90.8,232.5,240,250,250,-157.5,162.5,167.5,167.5,237.5,252.5,-262.5,252.5,670
7,M,David Bailey,SBD,R-C,93,Raw,1995,Ohio State University,OH,90.9,217.5,230,242.5,242.5,142.5,150,157.5,157.5,247.5,260,-265,260,660
8,M,Devin Thomas,SBD,R-C,93,Raw,1995,,CO,90.2,225,230,,230,150,157.5,,157.5,270,-285,-285,270,657.5
9,M,Marcus Bell,SBD,R-C,93,Raw,1995,University of Maryland,MD,86.8,225,237.5,242.5,242.5,155,160,165,165,-247.5,247.5,-270,247.5,655
10,M,James Perra,SBD,R-C,93,Raw,1997,,NY,90.5,247.5,-262.5,-262.5,247.5,150,-155,-155,150,255,-265,-265,255,652.5
11,M,Matthew Hence,SBD,R-C,93,Raw,1996,,MA,90.7,217.5,227.5,-235,227.5,142.5,150,152.5,152.5,245,262.5,272.5,272.5,652.5
12,M,Patrick Jin,SBD,R-C,93,Raw,1995,Rutgers University,NJ,92,207.5,215,-217.5,215,152.5,162.5,170,170,247.5,257.5,-260,257.5,642.5
13,M,Brendan Baugher,SBD,R-C,93,Raw,1995,Ohio State University,OH,89.6,190,200,207.5,207.5,150,157.5,165,165,240,255,267.5,267.5,640
14,M,Tyler Cox,SBD,R-C,93,Raw,1996,,TX,91.1,195,210,220,220,130,140,145,145,247.5,272.5,-277.5,272.5,637.5
15,M,Storm Mohn,SBD,R-C,93,Raw,1995,Ohio State University,OH,91.3,227.5,-240,-240,227.5,142.5,152.5,157.5,157.5,230,242.5,252.5,252.5,637.5
16,M,Kevin Hejnas,SBD,R-C,93,Raw,1994,Rutgers University,NJ,92.1,205,210,220,220,140,145,150,150,227.5,255,265,265,635
17,M,Ronald Ethan Coulter,SBD,R-C,93,Raw,1995,,TX,91.8,197.5,207.5,-217.5,207.5,127.5,140,147.5,147.5,237.5,260,267.5,267.5,622.5
18,M,Francis Callahan,SBD,R-C,93,Raw,1994,,TX,92.1,195,210,220,220,135,142.5,147.5,147.5,225,242.5,255,255,622.5
19,M,Connor Hassinger,SBD,R-C,93,Raw,1995,University of Pittsburgh,PA,90.6,210,222.5,-235,222.5,142.5,152.5,157.5,157.5,240,-257.5,-257.5,240,620
20,M,Jared Garcia,SBD,R-C,93,Raw,1996,Texas A&M Kingsville,TX,89.3,215,227.5,237.5,237.5,127.5,137.5,-142.5,137.5,222.5,-242.5,242.5,242.5,617.5
21,M,Eric Maldonado,SBD,R-C,93,Raw,1997,Tarleton State University,TX,91.8,212.5,232.5,-242.5,232.5,122.5,-140,140,140,230,245,-255,245,617.5
22,M,Benjamin Tribelli,SBD,R-C,93,Raw,1996,,RI,84.6,215,222.5,227.5,227.5,142.5,150,-155,150,225,232.5,-240,232.5,610
23,M,John Roll,SBD,R-C,93,Raw,1996,United States Military Academy,NY,91,195,205,215,215,122.5,130,135,135,232.5,242.5,252.5,252.5,602.5
24,M,Trevion Hill,SBD,R-C,93,Raw,1994,Louisiana Tech,LA,86.3,180,192.5,200,200,110,120,-127.5,120,252.5,275,-282.5,275,595
25,M,Sam Hudson,SBD,R-C,93,Raw,1995,Miami University,OH,90.7,192.5,200,205,205,147.5,-160,-160,147.5,227.5,237.5,-240,237.5,590
26,M,Jayden Cantu,SBD,R-C,93,Raw,1998,,MN,91.4,205,217.5,-227.5,217.5,117.5,-130,-132.5,117.5,250,-260,-260,250,585
27,M,Josh Fisher,SBD,R-C,93,Raw,1996,,TX,84.9,195,215,-227.5,215,117.5,132.5,-145,132.5,217.5,232.5,-245,232.5,580
28,M,Jordan Galida,SBD,R-C,93,Raw,1993,Pennsylvania State University,PA,88.2,172.5,195,207.5,207.5,117.5,125,-130,125,220,-237.5,247.5,247.5,580
29,M,Christian Tovar,SBD,R-C,93,Raw,1996,Texas A&M Kingsville,TX,90.6,180,187.5,195,195,140,145,-150,145,232.5,240,-242.5,240,580
30,M,Eric Stanko,SBD,R-C,93,Raw,1995,Pennsylvania State University,PA,89.5,205,215,-222.5,215,120,-127.5,-127.5,120,220,230,240,240,575
31,M,Jaydee Medina,SBD,R-C,93,Raw,1996,,NY,91,185,190,195,195,132.5,-137.5,137.5,137.5,235,242.5,-252.5,242.5,575
32,M,Kyle Castilleja,SBD,R-C,93,Raw,1996,Texas A&M Kingsville,TX,87,185,192.5,-207.5,192.5,117.5,125,130,130,235,250,-260,250,572.5
33,M,Collin Azinger,SBD,R-C,93,Raw,1996,University of Pittsburgh,PA,91.8,195,-200,200,200,130,137.5,-142.5,137.5,225,235,-242.5,235,572.5
34,M,Bryce Luster,SBD,R-C,93,Raw,1995,Texas A&M Kingsville,TX,88.8,190,197.5,205,205,120,127.5,132.5,132.5,215,225,232.5,232.5,570
35,M,Andrew Newton,SBD,R-C,93,Raw,1996,United States Military Academy,NY,88.1,180,185,192.5,192.5,135,140,145,145,210,220,230,230,567.5
36,M,Jake Limbardo,SBD,R-C,93,Raw,1996,University of Rhode Island,CT,89.9,200,-212.5,-217.5,200,-142.5,142.5,-150,142.5,215,225,-240,225,567.5
37,M,Ty Hill,SBD,R-C,93,Raw,1997,Tarleton State University,TX,85,182.5,192.5,200,200,107.5,115,122.5,122.5,-215,227.5,240,240,562.5
38,M,Jared Clinton,SBD,R-C,93,Raw,1995,Pennsylvania State University,PA,90,165,-175,182.5,182.5,145,152.5,-157.5,152.5,210,222.5,227.5,227.5,562.5
39,M,Jackson Jennings,SBD,R-C,93,Raw,1995,McKendree University,IL,92.2,192.5,212.5,220,220,135,142.5,-152.5,142.5,187.5,200,-210,200,562.5
40,M,Joseph Stanek,SBD,R-C,93,Raw,1994,,PA,92.3,-205,205,-207.5,205,-122.5,122.5,125,125,-220,230,-240,230,560
41,M,Caleb Thomas,SBD,R-C,93,Raw,1997,Texas A&M Kingsville,TX,91.7,185,192.5,197.5,197.5,120,130,-135,130,182.5,200,220,220,547.5
42,M,Jay Allen,SBD,R-C,93,Raw,1995,University of Texas at San Antonio,TX,90.4,-170,-175,175,175,120,127.5,-132.5,127.5,222.5,235,-242.5,235,537.5
43,M,Jonathan Plotz,SBD,R-C,93,Raw,1996,,VA,88.5,165,175,182.5,182.5,112.5,117.5,-120,117.5,212.5,222.5,235,235,535
44,M,Austin Michael,SBD,R-C,93,Raw,1995,,VA,88.8,-182.5,182.5,-197.5,182.5,-120,-120,120,120,-227.5,227.5,-240,227.5,530
45,M,Noah Suggs,SBD,R-C,93,Raw,1996,Texas A&M Kingsville,TX,92.2,175,190,200,200,125,132.5,-137.5,132.5,185,187.5,195,195,527.5
46,M,Zachary Moreno,SBD,R-C,93,Raw,1997,Texas A&M Kingsville,TX,89,175,180,187.5,187.5,132.5,137.5,142.5,142.5,175,187.5,-197.5,187.5,517.5
47,M,Sergio Sanchez,SBD,R-C,93,Raw,1995,Oklahoma State University,OK,91.1,-172.5,172.5,177.5,177.5,102.5,112.5,-115,112.5,207.5,220,227.5,227.5,517.5
48,M,Eric Hembling,SBD,R-C,93,Raw,1998,United States Air Force Academy,CO,91.8,175,-182.5,-182.5,175,105,-110,-110,105,-222.5,225,232.5,232.5,512.5
49,M,Robert Perez,SBD,R-C,93,Raw,1995,Texas A&M Kingsville,TX,88.5,172.5,-182.5,182.5,182.5,135,-142.5,-142.5,135,185,192.5,-205,192.5,510
50,M,Terrance Woodard,SBD,R-C,93,Raw,1994,Texas State University,TX,88.8,192.5,-202.5,202.5,202.5,102.5,105,-110,105,192.5,-202.5,-215,192.5,500
51,M,Jorge Salazar,SBD,R-C,93,Raw,1996,Texas A&M Kingsville,TX,91.9,175,185,190,190,117.5,132.5,-137.5,132.5,175,-187.5,-190,175,497.5
52,M,Austin Cooper,SBD,R-C,93,Raw,1996,University of Texas at Austin,MD,92.3,162.5,172.5,180,180,107.5,117.5,-125,117.5,195,-200,200,200,497.5
53,M,Alan Wang,SBD,R-C,93,Raw,1996,,TX,84.5,152.5,-165,170,170,-112.5,122.5,127.5,127.5,197.5,-212.5,-212.5,197.5,495
54,M,Ehron Capps,SBD,R-C,93,Raw,1997,University of Texas at Austin,TX,90.7,160,172.5,185,185,105,115,-127.5,115,177.5,187.5,195,195,495
55,M,Youssef Helmi,SBD,R-C,93,Raw,1997,Florida State University,FL,91.9,155,165,-167.5,165,110,115,-117.5,115,197.5,207.5,212.5,212.5,492.5
56,M,Andy Hernandez,SBD,R-C,93,Raw,1998,Texas A&M Kingsville,MA,85.7,-165,165,170,170,-100,-100,100,100,200,205,215,215,485
57,M,Ben Storsved,SBD,R-C,93,Raw,1998,Miami University,IL,90.8,162.5,-170,172.5,172.5,95,102.5,107.5,107.5,185,190,-195,190,470
DQ,M,Shaun Magill,SBD,R-C,93,Raw,1995,University of Illinois,IL,87.4,-207.5,222.5,-232.5,222.5,-137.5,-137.5,-137.5,,-255,262.5,-272.5,262.5,
1,M,Christian Habihirwe,SBD,R-C,105,Raw,1993,,TX,103.4,290,305,-317.5,305,192.5,-197.5,-197.5,192.5,-300,-300,300,300,797.5
2,M,Daniel Misencik,SBD,R-C,105,Raw,1994,Ohio State University,OH,104.5,275,285,290,290,142.5,150,155,155,282.5,292.5,297.5,297.5,742.5
3,M,Jacob Weiss,SBD,R-C,105,Raw,1995,United States Military Academy,NY,98,247.5,260,267.5,267.5,172.5,182.5,192.5,192.5,262.5,272.5,280,280,740
4,M,Dayton Mooney,SBD,R-C,105,Raw,1997,,KS,100.7,265,285,-292.5,285,147.5,157.5,162.5,162.5,260,277.5,-285,277.5,725
5,M,Benjamin Rowles,SBD,R-C,105,Raw,1996,Pennsylvania State University,PA,101.5,247.5,260,267.5,267.5,175,185,-192.5,185,247.5,265,-282.5,265,717.5
6,M,Stephen Porada,SBD,R-C,105,Raw,1997,United States Military Academy,NY,103.4,227.5,235,245,245,145,152.5,157.5,157.5,272.5,287.5,300,300,702.5
7,M,Nitin B Tangellamudi,SBD,R-C,105,Raw,1996,University of Illinois,IL,102.3,265,-275,-275,265,155,162.5,167.5,167.5,265,-282.5,,265,697.5
8,M,Matt Garcia,SBD,R-C,105,Raw,1995,Texas A&M Kingsville,TX,97.8,220,-230,237.5,237.5,160,167.5,170,170,257.5,267.5,275,275,682.5
9,M,Sean Kirchner,SBD,R-C,105,Raw,1997,United States Military Academy,NY,95.6,227.5,242.5,252.5,252.5,137.5,145,-147.5,145,260,270,277.5,277.5,675
10,M,William Willcox,SBD,R-C,105,Raw,1996,United States Military Academy,NY,100.9,227.5,235,245,245,145,152.5,162.5,162.5,-235,247.5,260,260,667.5
11,M,David Davison,SBD,R-C,105,Raw,1997,University of Texas at San Antonio,TX,101.5,210,220,227.5,227.5,160,-165,-165,160,-277.5,277.5,-280,277.5,665
12,M,Matt Ferrell,SBD,R-C,105,Raw,1996,Oklahoma State University,OK,99.7,237.5,242.5,250,250,135,142.5,147.5,147.5,242.5,257.5,260,260,657.5
13,M,Amru Qutub,SBD,R-C,105,Raw,1997,University of Illinois at Chicago,IL,104.7,215,230,247.5,247.5,127.5,-140,145,145,227.5,240,262.5,262.5,655
14,M,Keaton Wineman,SBD,R-C,105,Raw,1996,Ohio State University,OH,96.1,217.5,227.5,235,235,142.5,150,157.5,157.5,250,-257.5,257.5,257.5,650
15,M,Elee Johns,SBD,R-C,105,Raw,1996,University of Maryland,MD,101.8,225,240,247.5,247.5,150,157.5,-160,157.5,235,245,-252.5,245,650
16,M,Matthew McDonough,SBD,R-C,105,Raw,1997,United States Military Academy,NY,98.6,215,222.5,230,230,142.5,152.5,157.5,157.5,237.5,247.5,255,255,642.5
17,M,Connor O'Hanlon,SBD,R-C,105,Raw,1996,Pennsylvania State University,PA,97.1,217.5,227.5,235,235,155,162.5,165,165,227.5,240,-247.5,240,640
18,M,Justin Byers,SBD,R-C,105,Raw,1996,United States Military Academy,NY,98.3,207.5,222.5,235,235,142.5,150,155,155,-227.5,242.5,247.5,247.5,637.5
19,M,Jason Sickels,SBD,R-C,105,Raw,1997,,FL,100.7,230,235,240,240,150,160,-167.5,160,225,-237.5,-242.5,225,625
20,M,Max Grable,SBD,R-C,105,Raw,1995,University of Maryland,MD,98,215,230,245,245,132.5,140,147.5,147.5,185,205,227.5,227.5,620
21,M,Aaron Johnson,SBD,R-C,105,Raw,1997,Tarleton State University,TX,103.7,205,230,240,240,130,140,150,150,195,210,222.5,222.5,612.5
22,M,Derick Juptner,SBD,R-C,105,Raw,1998,Texas A&M Kingsville,TX,101.8,217.5,225,-230,225,142.5,147.5,152.5,152.5,210,217.5,225,225,602.5
23,M,Ross Ackeifi,SBD,R-C,105,Raw,1996,University of Hartford,CT,93.4,182.5,192.5,,192.5,140,145,147.5,147.5,245,250,-257.5,250,590
24,M,David Verzwyvelt,SBD,R-C,105,Raw,1996,Louisiana Tech,LA,102.3,192.5,200,207.5,207.5,125,127.5,132.5,132.5,227.5,240,250,250,590
25,M,Kameron Watson,SBD,R-C,105,Raw,1994,University of North Texas,TX,102.5,197.5,-212.5,212.5,212.5,120,-127.5,-127.5,120,245,-250,-250,245,577.5
26,M,Omar Leal,SBD,R-C,105,Raw,1996,University of Texas at Austin,TX,101,210,220,-227.5,220,117.5,125,130,130,212.5,220,-232.5,220,570
27,M,Kurt Jugo,SBD,R-C,105,Raw,1998,University of Houston,TX,103.5,192.5,202.5,215,215,117.5,130,-140,130,197.5,207.5,220,220,565
28,M,Mohammad Sharif,SBD,R-C,105,Raw,1996,,CA,101.4,-185,197.5,202.5,202.5,132.5,-150,-150,132.5,215,217.5,-232.5,217.5,552.5
29,M,Ryan Yoch,SBD,R-C,105,Raw,1997,University of Wisconsin River Falls,MN,102.8,172.5,185,197.5,197.5,125,-130,130,130,215,220,-227.5,220,547.5
30,M,Kevin Sosa,SBD,R-C,105,Raw,1994,,CA,102.8,172.5,182.5,187.5,187.5,-122.5,127.5,-132.5,127.5,220,-227.5,227.5,227.5,542.5
31,M,John Ferrentino,SBD,R-C,105,Raw,1994,University of Rhode Island,NJ,98.4,160,172.5,182.5,182.5,120,130,-140,130,202.5,215,227.5,227.5,540
32,M,Rubelin Torres,SBD,R-C,105,Raw,1996,Texas A&M Kingsville,TX,102.3,185,195,205,205,-105,112.5,122.5,122.5,185,197.5,210,210,537.5
33,M,Chad Lowe,SBD,R-C,105,Raw,1996,McKendree University,MO,99.4,165,175,-182.5,175,117.5,125,-132.5,125,215,227.5,232.5,232.5,532.5
DQ,M,Blake Wright,SBD,R-C,105,Raw,1995,Texas State University,TX,95.7,-275,-275,-275,,-142.5,-142.5,-142.5,,-305,,,,
DQ,M,Daniel Takacs,SBD,R-C,105,Raw,1995,McKendree University,IL,100.8,212.5,-222.5,222.5,222.5,-135,-135,,,,,,,
1,M,Enrique Lugo,SBD,R-C,120,Raw,1996,Texas A&M Kingsville,TX,115.2,280,297.5,-307.5,297.5,195,205,210,210,290,305,-320,305,812.5
2,M,AJ Alvarez,SBD,R-C,120,Raw,1994,Texas A&M Kingsville,TX,105.1,270,285,292.5,292.5,187.5,197.5,-207.5,197.5,282.5,297.5,-310,297.5,787.5
3,M,Seth Kirchner,SBD,R-C,120,Raw,1995,United States Military Academy,NY,112.8,-267.5,270,280,280,167.5,175,-180,175,272.5,287.5,-300,287.5,742.5
5,M,Timothy Hutchins,SBD,R-C,120,Raw,1997,Texas A&M Kingsville,TX,105.4,232.5,245,255,255,160,170,-177.5,170,267.5,-280,290,290,715
6,M,Ivan Carrier,SBD,R-C,120,Raw,1996,,NH,108.3,227.5,240,250,250,165,175,-180,175,290,-305,-305,290,715
7,M,Steven Kearney,SBD,R-C,120,Raw,1994,Ohio State University,OH,118.1,242.5,255,262.5,262.5,177.5,187.5,192.5,192.5,250,260,-272.5,260,715
8,M,Mark Bocanegra,SBD,R-C,120,Raw,1996,Texas A&M Kingsville,TX,120,247.5,265,275,275,160,175,-182.5,175,227.5,237.5,-250,237.5,687.5
9,M,Andrew Kanelos,SBD,R-C,120,Raw,1997,University of Illinois,IL,115.4,250,-275,-275,250,152.5,160,-165,160,272.5,-287.5,-287.5,272.5,682.5
10,M,James Worthy,SBD,R-C,120,Raw,1997,Texas State University,TX,113.9,250,-272.5,277.5,277.5,142.5,150,-157.5,150,237.5,-265,-265,237.5,665
11,M,Nicolas Recio,SBD,R-C,120,Raw,1995,Texas A&M Kingsville,TX,109,235,250,-260,250,150,-165,165,165,235,247.5,-260,247.5,662.5
12,M,Peter Hoang,SBD,R-C,120,Raw,1993,Texas A&M Kingsville,NJ,118.8,225,237.5,250,250,165,172.5,-182.5,172.5,205,217.5,227.5,227.5,650
13,M,Ishan Rison,SBD,R-C,120,Raw,1998,University of Texas at Austin,TX,115.3,227.5,242.5,247.5,247.5,160,-165,-165,160,225,237.5,-247.5,237.5,645
14,M,Cody Pruitt,SBD,R-C,120,Raw,1997,Oklahoma State University,OK,105.1,210,-220,225,225,155,167.5,-175,167.5,232.5,247.5,-257.5,247.5,640
15,M,Andres Arvizu,SBD,R-C,120,Raw,1997,Texas A&M Kingsville,TX,110.6,215,227.5,240,240,120,137.5,145,145,215,240,250,250,635
16,M,Kyle Franke,SBD,R-C,120,Raw,1996,McKendree University,IL,108.3,215,230,237.5,237.5,132.5,140,145,145,222.5,235,245,245,627.5
17,M,Kyle Stepherson,SBD,R-C,120,Raw,1996,,GA,114.9,222.5,230,-240,230,155,-160,-160,155,242.5,-252.5,-252.5,242.5,627.5
18,M,Justin Revilla,SBD,R-C,120,Raw,1995,Texas State University,TX,112.3,227.5,235,-245,235,-150,155,157.5,157.5,227.5,-245,-245,227.5,620
19,M,Lukas Indre,SBD,R-C,120,Raw,1997,Ohio State University,OH,105.3,200,207.5,217.5,217.5,137.5,142.5,147.5,147.5,240,-250,,240,605
20,M,Jordan Pitts,SBD,R-C,120,Raw,1995,Texas State University,TX,105.7,210,220,-227.5,220,150,157.5,-162.5,157.5,207.5,217.5,-227.5,217.5,595
21,M,Reyhan Eusufzai,SBD,R-C,120,Raw,1994,Oklahoma State University,OK,107.9,205,215,-217.5,215,140,147.5,-150,147.5,207.5,217.5,-222.5,217.5,580
22,M,David Schlieker,SBD,R-C,120,Raw,1996,McKendree University,IL,106.2,170,-175,175,175,125,130,-135,130,232.5,-247.5,247.5,247.5,552.5
23,M,Kevin Lesniak,SBD,R-C,120,Raw,1994,Pennsylvania State University,PA,112.7,195,210,222.5,222.5,105,115,-125,115,200,215,-225,215,552.5
24,M,Isaiah Regeon,SBD,R-C,120,Raw,1996,Tarleton State University,TX,116.3,185,195,-205,195,127.5,-137.5,-137.5,127.5,-185,185,-205,185,507.5
1,M,Haakon Borstad,SBD,R-C,120+,Raw,1995,Ohio State University,OH,142.1,267.5,280,292.5,292.5,137.5,147.5,152.5,152.5,290,300,-305,300,745
2,M,Joseph Lopez,SBD,R-C,120+,Raw,1995,Midland University,NE,144.6,275,285,296,296,182.5,192.5,-200,192.5,235,250,-257.5,250,738.5
3,M,Armand Narvaez,SBD,R-C,120+,Raw,1994,Texas A&M Kingsville,TX,123.4,235,245,252.5,252.5,167.5,177.5,-182.5,177.5,272.5,285,300,300,730
4,M,Fernando Flores,SBD,R-C,120+,Raw,1994,Texas A&M Kingsville,TX,120.04,242.5,255,-267.5,255,165,175,185,185,267.5,282.5,-290,282.5,722.5
4,M,Jared Shields,SBD,R-C,120+,Raw,1997,Tarleton State University,TX,125.8,245,265,272.5,272.5,150,160,-165,160,250,265,272.5,272.5,705
5,M,Alexander Burgess,SBD,R-C,120+,Raw,1994,Miami University,OH,121.1,235,250,257.5,257.5,160,167.5,172.5,172.5,245,255,265,265,695
6,M,Heriverto Zapata,SBD,R-C,120+,Raw,1995,,TX,120.5,260,270,282.5,282.5,145,155,-157.5,155,242.5,250,-260,250,687.5
7,M,Mason Cordes,SBD,R-C,120+,Raw,1997,University of Toledo,OH,129.1,255,275,-295.5,275,150,160,170,170,230,242.5,-260,242.5,687.5
8,M,Darryl Brooks,SBD,R-C,120+,Raw,1995,University of Rhode Island,RI,130.7,247.5,262.5,270,270,145,150,155,155,250,-265,-282.5,250,675
9,M,Clay Ellis,SBD,R-C,120+,Raw,1996,,TX,149,242.5,-257.5,257.5,257.5,162.5,-175,-182.5,162.5,220,230,-242.5,230,650
10,M,Gregory Knox,SBD,R-C,120+,Raw,1992,Ohio State University,OH,125.3,217.5,225,235,235,127.5,140,-145,140,215,227.5,240,240,615
11,M,Mark Cerda,SBD,R-C,120+,Raw,1994,Texas A&M Kingsville,TX,126.3,225,237.5,-250,237.5,127.5,135,-137.5,135,220,232.5,242.5,242.5,615
12,M,Carlos Ochoa,SBD,R-C,120+,Raw,1994,,TX,161,192.5,212.5,222.5,222.5,115,122.5,127.5,127.5,207.5,222.5,-232.5,222.5,572.5
13,M,Noel Perez,SBD,R-C,120+,Raw,1995,Texas A&M Kingsville,TX,165.6,170,-182.5,-182.5,170,120,-130,130,130,182.5,207.5,220,220,520
14,M,Dakota Meyers,SBD,R-C,120+,Raw,1998,McKendree University,IL,121.4,175,187.5,-195,187.5,120,127.5,-130,127.5,192.5,200,-207.5,200,515
