Division,WeightClassKg,Place,Name,Team,BodyweightKg,Best3SquatKg,Best3BenchKg,Best3DeadliftKg,TotalKg,Equipment,Event,Sex
Boys,52,1,Jose Garcia,Brownfield,49.9,102.06,68.04,127.01,297.1,Single-ply,SBD,M
Boys,52,2,Joseph Hernandez,Sundown,51.71,117.93,65.77,113.4,297.1,Single-ply,SBD,M
Boys,52,3,Paul Vidales,Sundown,51.62,113.4,52.16,113.4,278.96,Single-ply,SBD,M
Boys,52,4,Juan Duran,Lubbock Cooper,42.64,90.72,47.63,106.59,244.94,Single-ply,SBD,M
Boys,52,5,Stevie Moya,Tahoka,41.19,54.43,27.22,56.7,138.35,Single-ply,SBD,M
Boys,56,1,Brett Salas,Lubbock Cooper,53.98,167.83,74.84,174.63,417.3,Single-ply,SBD,M
Boys,56,2,Landon Morgan,Sundown,55.34,142.88,77.11,149.69,369.68,Single-ply,SBD,M
Boys,56,3,Dusty Rowecliff,Lubbock Roosevelt,54.43,102.06,70.31,124.74,297.1,Single-ply,SBD,M
Boys,56,4,Isiah Saldana,Tahoka,54.88,111.13,74.84,108.86,294.84,Single-ply,SBD,M
Boys,60,1,Cailer Woolam,Lubbock Cooper,59.42,156.49,83.91,183.7,424.11,Single-ply,SBD,M
Boys,60,2,Zack Gass,Lubbock Cooper,58.06,149.69,81.65,167.83,399.16,Single-ply,SBD,M
Boys,60,3,Markee Rodriguez,Brownfield,59.87,158.76,95.25,140.61,394.63,Single-ply,SBD,M
Boys,60,4,Ruben Sanchez,Meadow,58.51,131.54,86.18,167.83,385.55,Single-ply,SBD,M
Boys,60,5,Paul Bright,Brownfield,59.33,147.42,72.57,147.42,367.41,Single-ply,SBD,M
Boys,60,6,Jonathan Flores,Meadow,58.97,129.27,65.77,145.15,340.19,Single-ply,SBD,M
Boys,60,7,Chris Mendez,Lubbock Roosevelt,59.42,129.27,70.31,136.08,335.66,Single-ply,SBD,M
Boys,60,8,Justyn Williams,Tahoka,60,117.93,72.57,113.4,303.91,Single-ply,SBD,M
Boys,60,9,Bradley Cole,Brownfield,59.87,90.72,63.5,102.06,256.28,Single-ply,SBD,M
Boys,60,DQ,David Denton,Wolfforth Frenship,60,133.81,,,,Single-ply,SBD,M
Boys,67.5,1,Nick Aguirre,Tahoka,66.68,181.44,113.4,158.76,453.59,Single-ply,SBD,M
Boys,67.5,2,Michael Prieto,Lubbock Cooper,66.59,172.37,99.79,179.17,451.32,Single-ply,SBD,M
Boys,67.5,3,Julian Paiz,Sundown,63.96,161.03,88.45,170.1,419.57,Single-ply,SBD,M
Boys,67.5,4,Robby Escobar,Sundown,67.36,163.29,83.91,158.76,405.97,Single-ply,SBD,M
Boys,67.5,5,Luke Hawthorne,Tahoka,66.68,147.42,86.18,129.27,362.87,Single-ply,SBD,M
Boys,67.5,6,Bj Trevino,Lubbock Cooper,66.22,138.35,63.5,140.61,342.46,Single-ply,SBD,M
Boys,67.5,7,Andrew Castillo,Meadow,63.5,122.47,70.31,142.88,335.66,Single-ply,SBD,M
Boys,67.5,8,Keagan Daniel,Lubbock Roosevelt,63.96,124.74,65.77,140.61,331.12,Single-ply,SBD,M
Boys,67.5,9,Cesar Retana,Meadow,65.32,127.01,61.23,142.88,331.12,Single-ply,SBD,M
Boys,67.5,10,Nathan Vasquez,Lubbock Cooper,65.77,111.13,56.7,138.35,306.17,Single-ply,SBD,M
Boys,67.5,11,Brayan Jacquez,Sundown,62.6,108.86,52.16,136.08,297.1,Single-ply,SBD,M
Boys,67.5,12,Austin Taylor,Tahoka,64.86,102.06,54.43,99.79,256.28,Single-ply,SBD,M
Boys,67.5,DQ,Michael Soto,Wolfforth Frenship,66.59,161.03,,,,Single-ply,SBD,M
Boys,75,1,Jamie Bingham,Tahoka,75,195.04,115.67,204.12,514.83,Single-ply,SBD,M
Boys,75,2,Randy Zamora,Meadow,73.48,190.51,127.01,195.04,512.56,Single-ply,SBD,M
Boys,75,3,Roland Zamora,Meadow,74.84,188.24,95.25,195.04,478.54,Single-ply,SBD,M
Boys,75,4,Pete Munoz,Brownfield,74.84,181.44,104.33,174.63,460.4,Single-ply,SBD,M
Boys,75,5,Luis Torrez,Meadow,73.48,163.29,81.65,156.49,401.43,Single-ply,SBD,M
Boys,75,6,Rafeal Urias,Meadow,74.84,158.76,81.65,151.95,392.36,Single-ply,SBD,M
Boys,75,7,Colton Barclay,Meadow,73.48,147.42,68.04,156.49,371.95,Single-ply,SBD,M
Boys,75,8,Ethan Carrell,Lubbock Roosevelt,69.4,127.01,77.11,136.08,340.19,Single-ply,SBD,M
Boys,75,DQ,Kyler Jolly,Tahoka,68.86,138.35,,,,Single-ply,SBD,M
Boys,82.5,1,Bryan Vela,Meadow,82.1,242.67,138.35,260.82,641.83,Single-ply,SBD,M
Boys,82.5,2,Devin Elmore,Sundown,80.74,195.04,108.86,156.49,460.4,Single-ply,SBD,M
Boys,82.5,3,Conner MacNair,Wolfforth Frenship,76.66,167.83,102.06,183.7,453.59,Single-ply,SBD,M
Boys,82.5,4,Andrew Mendez,Wolfforth Frenship,79.83,161.03,97.52,188.24,446.79,Single-ply,SBD,M
Boys,82.5,5,Adrian Soto,Meadow,76.66,167.83,99.79,172.37,439.98,Single-ply,SBD,M
Boys,82.5,6,Bryce McHam,Sundown,81.19,158.76,99.79,154.22,412.77,Single-ply,SBD,M
Boys,82.5,7,Victor Rodriguez,Lubbock Roosevelt,76.11,142.88,88.45,149.69,381.02,Single-ply,SBD,M
Boys,82.5,8,Bradley Castillon,Tahoka,76.66,142.88,88.45,136.08,367.41,Single-ply,SBD,M
Boys,82.5,9,Daniel Paiva,Brownfield,82.1,124.74,88.45,151.95,365.14,Single-ply,SBD,M
Boys,82.5,10,Jacob Bray,Sundown,76.2,140.61,74.84,136.08,351.53,Single-ply,SBD,M
Boys,82.5,11,Jake Stoker,Lubbock Cooper,82.33,115.67,70.31,133.81,319.78,Single-ply,SBD,M
Boys,82.5,DQ,Tim Rodriguez,Sundown,77.56,163.29,79.38,,,Single-ply,SBD,M
Boys,90,1,Fili Jaquez,Lubbock Cooper,88,231.33,140.61,226.8,598.74,Single-ply,SBD,M
Boys,90,2,Tim Bergara,Brownfield,87.91,219.99,147.42,217.72,585.13,Single-ply,SBD,M
Boys,90,3,Spencer Chance,Sundown,88.45,208.65,129.27,206.38,544.31,Single-ply,SBD,M
Boys,90,4,Montana Vega,Lubbock Cooper,88,190.51,113.4,201.85,505.76,Single-ply,SBD,M
Boys,90,5,Stetson Casey,Wolfforth Frenship,83.91,172.37,102.06,188.24,462.66,Single-ply,SBD,M
Boys,90,6,Jeff Smith,Lubbock Roosevelt,88.36,136.08,111.13,142.88,390.09,Single-ply,SBD,M
Boys,90,DQ,Julian Hernandez,Lubbock Roosevelt,88.9,147.42,90.72,,,Single-ply,SBD,M
Boys,100,1,Daniel Carmona,Brownfield,97.89,199.58,102.06,217.72,519.36,Single-ply,SBD,M
Boys,100,2,Sammy Sambrano,Brownfield,95.71,179.17,120.2,181.44,480.81,Single-ply,SBD,M
Boys,100,3,Andrew Clayman,Brownfield,98.88,199.58,111.13,158.76,469.47,Single-ply,SBD,M
Boys,100,4,Matt Foster,Wolfforth Frenship,94.8,197.31,81.65,176.9,455.86,Single-ply,SBD,M
Boys,100,5,Isacc Vega,Tahoka,91.17,142.88,92.99,154.22,390.09,Single-ply,SBD,M
Boys,100,6,Jackson Stevens,Lubbock Cooper,97.98,129.27,72.57,129.27,331.12,Single-ply,SBD,M
Boys,110,1,Christian Garcia,Lubbock Roosevelt,101.06,197.31,127.01,210.92,535.24,Single-ply,SBD,M
Boys,110,2,Robert Barker,Wolfforth Frenship,108.41,204.12,108.86,179.17,492.15,Single-ply,SBD,M
Boys,110,3,Daniel Rivera,Lubbock Roosevelt,106.96,167.83,97.52,163.29,428.64,Single-ply,SBD,M
Boys,110,4,Austin Wills,Wolfforth Frenship,105.69,149.69,102.06,170.1,421.84,Single-ply,SBD,M
Boys,110,5,Efrain Ramirez,Tahoka,109.32,136.08,74.84,158.76,369.68,Single-ply,SBD,M
Boys,110,DQ,Joey Elizardo,Brownfield,109.77,240.4,156.49,,,Single-ply,SBD,M
Boys,125,1,Freddie Savage,Wolfforth Frenship,115.21,240.4,133.81,195.04,569.26,Single-ply,SBD,M
Boys,125,2,Micheal Johnson,Lubbock Cooper,112.49,213.19,122.47,215.46,551.11,Single-ply,SBD,M
Boys,125,3,Jonathan Aguilar,Lubbock Roosevelt,116.48,136.08,81.65,127.01,344.73,Single-ply,SBD,M
Boys,125,DQ,Riley Thompson,Sundown,117.93,,,,,Single-ply,SBD,M
Boys,125+,1,Dillon Beesinger,Lubbock Cooper,136.98,278.96,158.76,213.19,650.91,Single-ply,SBD,M
Boys,125+,2,Eric Garcia,Lubbock Roosevelt,127.46,208.65,127.01,190.51,526.17,Single-ply,SBD,M
Boys,125+,3,Larson Crume,Wolfforth Frenship,148.32,213.19,108.86,201.85,523.9,Single-ply,SBD,M
Boys,125+,4,Garrett McCarty,Lubbock Roosevelt,149.59,124.74,86.18,170.1,381.02,Single-ply,SBD,M
Boys,125+,DQ,Taylor York,Wolfforth Frenship,134.72,197.31,108.86,,,Single-ply,SBD,M
